(footprint "GCT_USB4085-GF-A" (version 20211014) (generator pcbnew)
  (layer "F.Cu")
  (tedit 0)
  (descr "through-hole USB-C connector")
  (property "DK_PN" "2073-USB4085-GF-ACT-ND")
  (property "Description" "USB-C socket")
  (property "MPN" "USB4085-GF-A")
  (property "Manufacturer" "GCT")
  (property "Sheetfile" "backplane16pcie.kicad_sch")
  (property "Sheetname" "")
  (attr through_hole)
  (fp_text reference "J17" (at 2.975 -2 -180) (layer "F.SilkS")
    (effects (font (size 1 1) (thickness 0.15)))
    (tstamp a54dc732-0a20-460a-bb63-60791a83728c)
  )
  (fp_text value "USB4085-GF-A" (at 3 -4 -180) (layer "F.Fab")
    (effects (font (size 1 1) (thickness 0.15)))
    (tstamp af6f66dd-f261-4b6c-a7ae-1b7d47cede32)
  )
  (fp_circle (center -2.2574 0) (end -1.8764 0) (layer "B.SilkS") (width 0.12) (fill none) (tstamp dc169e7c-6dad-4416-9e55-28740e03d8a6))
  (fp_line (start -1.6224 -0.987) (end -1.6224 -0.618206) (layer "F.SilkS") (width 0.12) (tstamp 68d48bc5-f8d1-40b7-8b9d-aa1f0f77efe3))
  (fp_line (start 7.5724 -0.618202) (end 7.5724 -0.987) (layer "F.SilkS") (width 0.12) (tstamp 7e1c810c-8588-4556-8d55-f499efd71b8e))
  (fp_line (start 7.5724 -0.987) (end -1.6224 -0.987) (layer "F.SilkS") (width 0.12) (tstamp 8d1cf524-c044-4151-8dba-49fa47af5fdc))
  (fp_line (start -1.6224 2.578207) (end -1.6224 3.122399) (layer "F.SilkS") (width 0.12) (tstamp a1fcde82-85e0-47a9-84ee-43123bedc8df))
  (fp_line (start 7.5724 3.122399) (end 7.5724 2.578201) (layer "F.SilkS") (width 0.12) (tstamp c0cfacb0-cdb3-49e5-82ee-e55f49b08889))
  (fp_line (start -1.669729 -0.561679) (end -2.008582 -0.561679) (layer "F.CrtYd") (width 0.05) (tstamp 08966016-b39f-4c72-be55-c3e59aaea3a3))
  (fp_line (start 7.958567 2.52168) (end 7.958567 -0.56168) (layer "F.CrtYd") (width 0.05) (tstamp 186fa242-8448-476f-a41c-b39facfd4525))
  (fp_line (start 7.987313 5.536581) (end 7.987313 3.193419) (layer "F.CrtYd") (width 0.05) (tstamp 1fb8c943-5d34-483f-a872-bc7ba415ac1b))
  (fp_line (start -2.008582 -0.561679) (end -2.008582 2.521681) (layer "F.CrtYd") (width 0.05) (tstamp 2274d595-019e-47d4-9c0a-027af0699be9))
  (fp_line (start -1.669729 -1.04473) (end -1.669729 -0.561679) (layer "F.CrtYd") (width 0.05) (tstamp 27c4713b-7f66-4f70-903d-7a174cebcde3))
  (fp_line (start -2.037312 5.536582) (end -1.66973 5.536581) (layer "F.CrtYd") (width 0.05) (tstamp 2b4f6359-7063-4105-961a-665f8d46061a))
  (fp_line (start 7.987313 3.193419) (end 7.61973 3.193419) (layer "F.CrtYd") (width 0.05) (tstamp 39ee98cb-072a-4549-830d-f84c5207d3d7))
  (fp_line (start 7.619729 5.536581) (end 7.987313 5.536581) (layer "F.CrtYd") (width 0.05) (tstamp 3f6abb56-b68f-40e1-bdc0-e8a90de8a517))
  (fp_line (start 7.61973 -0.56168) (end 7.619731 -1.04473) (layer "F.CrtYd") (width 0.05) (tstamp 43a6baba-b8b4-4f61-932b-05f1f8240860))
  (fp_line (start 7.619731 -1.04473) (end -1.669729 -1.04473) (layer "F.CrtYd") (width 0.05) (tstamp 4ef93c32-04e0-48fc-9998-3cc8444b1843))
  (fp_line (start 7.619729 8.798931) (end 7.619729 5.536581) (layer "F.CrtYd") (width 0.05) (tstamp 533b1f3c-6560-48dc-884b-9f27f2456f7e))
  (fp_line (start -1.66973 3.193419) (end -2.037312 3.193419) (layer "F.CrtYd") (width 0.05) (tstamp 54b5164b-2096-417b-a7ff-0def0e508364))
  (fp_line (start 7.619731 -1.04473) (end -1.669729 -1.04473) (layer "F.CrtYd") (width 0.05) (tstamp 59d3c3ed-76aa-424a-9f91-8a7716538f98))
  (fp_line (start -2.037312 3.193419) (end -2.037312 5.536582) (layer "F.CrtYd") (width 0.05) (tstamp 5b5228a4-6d24-486a-b4e1-c0a8f7c3a63a))
  (fp_line (start 7.61973 3.193419) (end 7.61973 2.52168) (layer "F.CrtYd") (width 0.05) (tstamp 68f1e225-6a23-4968-b90e-8b0c7dda5f57))
  (fp_line (start -1.66973 3.193419) (end -2.037312 3.193419) (layer "F.CrtYd") (width 0.05) (tstamp 6fb3aae6-faf8-48a3-81a6-c6848f78bb8a))
  (fp_line (start -2.037312 5.536582) (end -1.66973 5.536581) (layer "F.CrtYd") (width 0.05) (tstamp 7c8285a2-cbfa-43b3-819f-25b1e80e04ad))
  (fp_line (start 7.987313 3.193419) (end 7.61973 3.193419) (layer "F.CrtYd") (width 0.05) (tstamp 7d9b6fc4-26e4-4418-93bc-7e28817a397c))
  (fp_line (start -1.669729 -1.04473) (end -1.669729 -0.561679) (layer "F.CrtYd") (width 0.05) (tstamp 83902b96-a8e1-45cd-a077-7d71e5d908d4))
  (fp_line (start 7.61973 -0.56168) (end 7.619731 -1.04473) (layer "F.CrtYd") (width 0.05) (tstamp 83d81ebb-539e-446f-a8a4-69901d51b377))
  (fp_line (start -1.66973 8.798929) (end 7.619729 8.798931) (layer "F.CrtYd") (width 0.05) (tstamp 8507ce96-2fe1-479b-b259-e964102bb981))
  (fp_line (start -2.008582 2.521681) (end -1.66973 2.521681) (layer "F.CrtYd") (width 0.05) (tstamp 909c2712-f64f-4953-804d-ed7cb9d4bd30))
  (fp_line (start -1.66973 2.521681) (end -1.66973 3.193419) (layer "F.CrtYd") (width 0.05) (tstamp a5dc3cb7-ebff-4223-868f-41b9ce43a816))
  (fp_line (start 7.987313 5.536581) (end 7.987313 3.193419) (layer "F.CrtYd") (width 0.05) (tstamp abd6bf9e-cf28-4708-b4a0-a94bf54416ba))
  (fp_line (start -2.037312 3.193419) (end -2.037312 5.536582) (layer "F.CrtYd") (width 0.05) (tstamp ad35ff30-baed-46b1-9556-2b67a3f843df))
  (fp_line (start -1.669729 -0.561679) (end -2.008582 -0.561679) (layer "F.CrtYd") (width 0.05) (tstamp b6820a3a-0ef2-419f-8287-0196ae5479ce))
  (fp_line (start -1.66973 8.798929) (end 7.619729 8.798931) (layer "F.CrtYd") (width 0.05) (tstamp bdf78db7-7223-4abb-99a8-69349d4c35f4))
  (fp_line (start 7.61973 3.193419) (end 7.61973 2.52168) (layer "F.CrtYd") (width 0.05) (tstamp bfb31e5a-5d5f-45e0-bad5-aab19562b8c5))
  (fp_line (start -1.66973 5.536581) (end -1.66973 8.798929) (layer "F.CrtYd") (width 0.05) (tstamp c102c727-d6f4-4b17-b7f4-b71fe0584b74))
  (fp_line (start -1.66973 5.536581) (end -1.66973 8.798929) (layer "F.CrtYd") (width 0.05) (tstamp c54f9d5b-6174-4485-856f-39f8c6411efd))
  (fp_line (start 7.61973 2.52168) (end 7.958567 2.52168) (layer "F.CrtYd") (width 0.05) (tstamp d0f36887-6886-4a79-9522-137a07a6f1a4))
  (fp_line (start 7.958567 2.52168) (end 7.958567 -0.56168) (layer "F.CrtYd") (width 0.05) (tstamp d2478fa4-5227-4e93-a396-82a7f119805f))
  (fp_line (start 7.61973 2.52168) (end 7.958567 2.52168) (layer "F.CrtYd") (width 0.05) (tstamp dbbcf951-4437-4b7b-be0a-cabc8dab2695))
  (fp_line (start 7.958567 -0.56168) (end 7.61973 -0.56168) (layer "F.CrtYd") (width 0.05) (tstamp dbdeee03-d19b-4af9-bcd1-f96075fe7b03))
  (fp_line (start -2.008582 2.521681) (end -1.66973 2.521681) (layer "F.CrtYd") (width 0.05) (tstamp e254bcf6-dd08-46d8-9103-a12ef9de2500))
  (fp_line (start 7.619729 5.536581) (end 7.987313 5.536581) (layer "F.CrtYd") (width 0.05) (tstamp e2cea05f-aa09-4714-9a1d-4764417e7e1b))
  (fp_line (start -1.66973 2.521681) (end -1.66973 3.193419) (layer "F.CrtYd") (width 0.05) (tstamp e87389d7-7264-4cc4-bb1d-eaf32674fc9e))
  (fp_line (start 7.958567 -0.56168) (end 7.61973 -0.56168) (layer "F.CrtYd") (width 0.05) (tstamp eb5f0c68-4c7d-4731-ac66-e8e033575e34))
  (fp_line (start -2.008582 -0.561679) (end -2.008582 2.521681) (layer "F.CrtYd") (width 0.05) (tstamp f8affd7a-0937-4ab1-b6ac-eff81229f977))
  (fp_line (start 7.619729 8.798931) (end 7.619729 5.536581) (layer "F.CrtYd") (width 0.05) (tstamp f97f507c-ee6b-4e45-a2d5-31073eaf66ff))
  (fp_line (start -1.4954 -0.86) (end -1.4954 8.614199) (layer "F.Fab") (width 0.1) (tstamp 0213835f-f331-48a2-8c60-0aea135ad3c9))
  (fp_line (start -1.4954 8.614199) (end 7.4454 8.614199) (layer "F.Fab") (width 0.1) (tstamp 4b146b98-7df9-4fcb-8ab4-b4ecf97b8bee))
  (fp_line (start 7.4454 8.614199) (end 7.4454 -0.86) (layer "F.Fab") (width 0.1) (tstamp c190dc79-1106-4e0a-908b-25313468c5a2))
  (fp_line (start 7.4454 -0.86) (end -1.4954 -0.86) (layer "F.Fab") (width 0.1) (tstamp dc3e6069-5108-41b3-8691-507949bec11e))
  (fp_circle (center 0 -1.905) (end 0.381 -1.905) (layer "F.Fab") (width 0.1) (fill none) (tstamp 77df0275-0da8-4c36-9cc8-ad864cbc5ff6))
  (pad "A1" thru_hole circle (at 0 0) (size 0.6604 0.6604) (drill 0.4064) (layers *.Cu *.Mask) (tstamp 70d0a17e-6e06-47a0-a984-7602e62c7d38))
  (pad "A4" thru_hole circle (at 0.850001 0) (size 0.6604 0.6604) (drill 0.4064) (layers *.Cu *.Mask) (tstamp b3d9c62b-acfc-4aca-a5c9-ad55de08eaf7))
  (pad "A5" thru_hole circle (at 1.699999 0) (size 0.6604 0.6604) (drill 0.4064) (layers *.Cu *.Mask) (tstamp 2cbc17ef-fcff-4b2f-b1ac-af1833090ed2))
  (pad "A6" thru_hole circle (at 2.55 0) (size 0.6604 0.6604) (drill 0.4064) (layers *.Cu *.Mask) (tstamp dc15b5fd-ed48-49fd-ab8a-d9a9ea950bd0))
  (pad "A7" thru_hole circle (at 3.400001 0) (size 0.6604 0.6604) (drill 0.4064) (layers *.Cu *.Mask) (tstamp d7813ee4-01d5-4d3e-a1dd-d1113bd3b8c8))
  (pad "A8" thru_hole circle (at 4.250002 0) (size 0.6604 0.6604) (drill 0.4064) (layers *.Cu *.Mask) (tstamp e2fafd48-45e3-452a-adde-38494299a470))
  (pad "A9" thru_hole circle (at 5.1 0) (size 0.6604 0.6604) (drill 0.4064) (layers *.Cu *.Mask) (tstamp 45bb7929-c5f0-481a-a3f9-9d269fd7ea20))
  (pad "A12" thru_hole circle (at 5.950001 0) (size 0.6604 0.6604) (drill 0.4064) (layers *.Cu *.Mask) (tstamp 2e12a955-2367-47f4-8e5d-65ce7baf9f74))
  (pad "B1" thru_hole circle (at 5.950001 1.35) (size 0.6604 0.6604) (drill 0.4064) (layers *.Cu *.Mask) (tstamp 50202c43-1129-46d1-b814-1e70d91004aa))
  (pad "B4" thru_hole circle (at 5.1 1.35) (size 0.6604 0.6604) (drill 0.4064) (layers *.Cu *.Mask) (tstamp f016838e-416b-4736-99ab-02041d0752b1))
  (pad "B5" thru_hole circle (at 4.250002 1.35) (size 0.6604 0.6604) (drill 0.4064) (layers *.Cu *.Mask) (tstamp f49f44a4-3309-47a2-94aa-e13c48a77040))
  (pad "B6" thru_hole circle (at 3.400001 1.35) (size 0.6604 0.6604) (drill 0.4064) (layers *.Cu *.Mask) (tstamp 6ba7b88d-8a48-4d36-b334-15bfb934320e))
  (pad "B7" thru_hole circle (at 2.55 1.35) (size 0.6604 0.6604) (drill 0.4064) (layers *.Cu *.Mask) (tstamp a50f981b-40b7-436d-bcdc-1bc15da86d1e))
  (pad "B8" thru_hole circle (at 1.699999 1.35) (size 0.6604 0.6604) (drill 0.4064) (layers *.Cu *.Mask) (tstamp 97aa8f7d-591e-4272-b15d-86e77f049218))
  (pad "B9" thru_hole circle (at 0.850001 1.35) (size 0.6604 0.6604) (drill 0.4064) (layers *.Cu *.Mask) (tstamp b5fbc7d0-6534-4ca7-850b-f81243605b89))
  (pad "B12" thru_hole circle (at 0 1.35) (size 0.6604 0.6604) (drill 0.4064) (layers *.Cu *.Mask) (tstamp 02bc5d4b-53e8-43d8-b728-23a7cf54ee1e))
  (pad "M1" thru_hole oval (at -1.35 0.980001 90) (size 2.6162 1.1176) (drill oval 2.11 0.6096) (layers *.Cu *.Mask) (tstamp 41304693-4594-45ba-b789-3ff4ef3de23b))
  (pad "M2" thru_hole oval (at -1.349985 4.365 90) (size 1.905 1.1176) (drill oval 1.397 0.6096) (layers *.Cu *.Mask) (tstamp 550c9ddf-9c20-407f-87ea-27497abf5b3a))
  (pad "M3" thru_hole oval (at 7.299985 0.98 90) (size 2.6162 1.1176) (drill oval 2.11 0.6096) (layers *.Cu *.Mask) (tstamp 60cf9bdc-477c-4d9b-b4a6-9c610832755b))
  (pad "M4" thru_hole oval (at 7.299985 4.365 90) (size 1.905 1.1176) (drill oval 1.397 0.6096) (layers *.Cu *.Mask) (tstamp 618138be-1c3c-4e62-8e3c-8f0874921299))
  (model "${KIPRJMOD}/../kicad-libs/usb.pretty/GCT_USB4085-GF-A.step"
    (offset (xyz 14.97 -4.05 1.9))
    (scale (xyz 1 1 1))
    (rotate (xyz -90 0 0))
  )
)
