(footprint "USB-SMD_U-D-M5DS-W-4" (version 20221018) (generator pcbnew)
  (layer "F.Cu")
  (attr smd)
  (fp_text reference "REF**" (at 0 -5.83) (layer "F.SilkS")
      (effects (font (size 1 1) (thickness 0.15)))
    (tstamp 36af6140-8a8d-4400-bbde-a3d35094e0a1)
  )
  (fp_text value "USB-SMD_U-D-M5DS-W-4" (at 0 5.83) (layer "F.Fab")
      (effects (font (size 1 1) (thickness 0.15)))
    (tstamp 639c01f8-c28f-4b6e-b08e-edaeb4f5f6ca)
  )
  (fp_text user "${REFERENCE}" (at 0 0) (layer "F.Fab")
      (effects (font (size 1 1) (thickness 0.15)))
    (tstamp d355f27a-3267-473d-87a4-66e3bcbd44e4)
  )
  (fp_line (start -3.69 -1.27) (end -3.69 -0.67)
    (stroke (width 0.25) (type solid)) (layer "F.SilkS") (tstamp e3510784-b154-4036-9212-9575c9028ff1))
  (fp_line (start -1.76 -1.27) (end -3.69 -1.27)
    (stroke (width 0.25) (type solid)) (layer "F.SilkS") (tstamp 5d0410cf-169a-47f9-9e73-6805c50dbf41))
  (fp_line (start 1.54 1.27) (end -1.55 1.27)
    (stroke (width 0.25) (type solid)) (layer "F.SilkS") (tstamp eb4fc4e0-0867-4d8a-8d5b-1691e611a7c6))
  (fp_line (start 3.68 -1.27) (end 1.75 -1.27)
    (stroke (width 0.25) (type solid)) (layer "F.SilkS") (tstamp 4a0e1a2e-3a66-47b2-81bf-3d49af1d723c))
  (fp_line (start 3.68 -1.27) (end 3.68 -0.74)
    (stroke (width 0.25) (type solid)) (layer "F.SilkS") (tstamp 16d29d1d-0469-4ba7-bf1e-b2cb49cf6430))
  (fp_circle (center 3.43 -2.16) (end 3.18 -2.16)
    (stroke (width 0.25) (type solid)) (fill none) (layer "F.SilkS") (tstamp cfa3ac71-ce18-4d71-bdbf-6447cdbff3f7))
  (fp_circle (center 1.47 -2.16) (end 1.32 -2.16)
    (stroke (width 0.3) (type solid)) (fill none) (layer "Cmts.User") (tstamp a1f143f9-724f-4e9a-b177-3cdae68a4723))
  (fp_circle (center 3.7 -2.43) (end 3.67 -2.43)
    (stroke (width 0.06) (type solid)) (fill none) (layer "F.Fab") (tstamp de1aeb32-5d74-48c1-9523-e1a218c058be))
  (pad "1" smd rect (at 1.3 -1.83 180) (size 0.45 1.51) (layers "F.Cu" "F.Paste" "F.Mask") (tstamp 471d3c68-d8ba-49dd-bb9e-c17c0ee606bc))
  (pad "2" smd rect (at 0.65 -1.83 180) (size 0.45 1.51) (layers "F.Cu" "F.Paste" "F.Mask") (tstamp 5ec64076-6e18-4836-953f-b6cb8e8b44d7))
  (pad "3" smd rect (at 0 -1.83 180) (size 0.45 1.51) (layers "F.Cu" "F.Paste" "F.Mask") (tstamp 2d8a49c3-67fe-4ae7-915a-eacd652d21c1))
  (pad "4" smd rect (at -0.65 -1.83 180) (size 0.45 1.51) (layers "F.Cu" "F.Paste" "F.Mask") (tstamp a30f8679-e99d-42b0-967d-45190557841b))
  (pad "5" smd rect (at -1.3 -1.83 180) (size 0.45 1.51) (layers "F.Cu" "F.Paste" "F.Mask") (tstamp 50372140-99d0-4eb3-8b65-dd28f41351e0))
  (pad "6" thru_hole oval (at -3.57 0.31 180) (size 0.8 1.4) (drill oval 0.449986 1.050011) (layers "*.Cu" "*.Mask") (tstamp 00a75357-7aff-4f3b-a66b-7a36c962808c))
  (pad "6" smd rect (at -2.55 1.83 180) (size 1.55 1.3) (layers "F.Cu" "F.Paste" "F.Mask") (tstamp fb7058f8-5657-4992-afd9-bfafd05b63ac))
  (pad "6" smd rect (at 2.55 1.83 180) (size 1.55 1.3) (layers "F.Cu" "F.Paste" "F.Mask") (tstamp f691257b-85c4-49d8-92da-f47f79eeadb4))
  (pad "6" thru_hole oval (at 3.57 0.31 180) (size 0.8 1.4) (drill oval 0.449986 1.050011) (layers "*.Cu" "*.Mask") (tstamp 8eeee976-cd6f-4d99-be0c-6cd33d551526))
  (model "${KIPRJMOD}/kicad-libs/models/USB-SMD_U-D-M5DS-W-4.wrl"
    (offset (xyz 0 -0.18 0.8))
    (scale (xyz 1 1 1))
    (rotate (xyz 0 0 0))
  )
)
