(kicad_symbol_lib (version 20220914) (generator kicad_symbol_editor)
  (symbol "74LS324" (in_bom yes) (on_board yes)
    (property "Reference" "U" (at -6.35 11.43 0)
      (effects (font (size 1.27 1.27)))
    )
    (property "Value" "74LS324" (at 6.35 -13.97 0)
      (effects (font (size 1.27 1.27)))
    )
    (property "Footprint" "" (at 17.78 -16.51 0)
      (effects (font (size 1.27 1.27)) hide)
    )
    (property "Datasheet" "" (at 2.54 0 0)
      (effects (font (size 1.27 1.27)) hide)
    )
    (symbol "74LS324_0_0"
      (pin no_connect line (at 3.81 12.7 270) (length 2.54) hide
        (name "NC" (effects (font (size 1.27 1.27))))
        (number "10" (effects (font (size 1.27 1.27))))
      )
      (pin no_connect line (at 3.81 12.7 270) (length 2.54) hide
        (name "NC" (effects (font (size 1.27 1.27))))
        (number "11" (effects (font (size 1.27 1.27))))
      )
      (pin no_connect line (at 3.81 12.7 270) (length 2.54) hide
        (name "NC" (effects (font (size 1.27 1.27))))
        (number "12" (effects (font (size 1.27 1.27))))
      )
    )
    (symbol "74LS324_0_1"
      (rectangle (start -6.35 10.16) (end 6.35 -12.7)
        (stroke (width 0) (type default))
        (fill (type background))
      )
    )
    (symbol "74LS324_1_1"
      (pin power_in line (at -1.27 -15.24 90) (length 2.54)
        (name "GNDA" (effects (font (size 1.27 1.27))))
        (number "1" (effects (font (size 1.27 1.27))))
      )
      (pin input line (at -8.89 3.81 0) (length 2.54)
        (name "FRQCTRL" (effects (font (size 1.27 1.27))))
        (number "13" (effects (font (size 1.27 1.27))))
      )
      (pin power_in line (at -1.27 12.7 270) (length 2.54)
        (name "VCCA" (effects (font (size 1.27 1.27))))
        (number "14" (effects (font (size 1.27 1.27))))
      )
      (pin input line (at -8.89 1.27 0) (length 2.54)
        (name "RANGE" (effects (font (size 1.27 1.27))))
        (number "2" (effects (font (size 1.27 1.27))))
      )
      (pin input line (at -8.89 -3.81 0) (length 2.54)
        (name "CX1" (effects (font (size 1.27 1.27))))
        (number "3" (effects (font (size 1.27 1.27))))
      )
      (pin input line (at -8.89 -6.35 0) (length 2.54)
        (name "CX2" (effects (font (size 1.27 1.27))))
        (number "4" (effects (font (size 1.27 1.27))))
      )
      (pin input inverted (at -8.89 -1.27 0) (length 2.54)
        (name "~{EN}" (effects (font (size 1.27 1.27))))
        (number "5" (effects (font (size 1.27 1.27))))
      )
      (pin output line (at 8.89 1.27 180) (length 2.54)
        (name "Y" (effects (font (size 1.27 1.27))))
        (number "6" (effects (font (size 1.27 1.27))))
      )
      (pin power_in line (at 1.27 -15.24 90) (length 2.54)
        (name "GND" (effects (font (size 1.27 1.27))))
        (number "7" (effects (font (size 1.27 1.27))))
      )
      (pin output line (at 8.89 -1.27 180) (length 2.54)
        (name "~{Y}" (effects (font (size 1.27 1.27))))
        (number "8" (effects (font (size 1.27 1.27))))
      )
      (pin power_in line (at 1.27 12.7 270) (length 2.54)
        (name "VCC" (effects (font (size 1.27 1.27))))
        (number "9" (effects (font (size 1.27 1.27))))
      )
    )
  )
)
