(kicad_symbol_lib (version 20220914) (generator kicad_symbol_editor)
  (symbol "DFPlayer_Mini" (in_bom yes) (on_board yes)
    (property "Reference" "U" (at -7.62 15.24 0)
      (effects (font (size 1.27 1.27)))
    )
    (property "Value" "DFPlayer Mini" (at 7.62 -15.24 0)
      (effects (font (size 1.27 1.27)))
    )
    (property "Footprint" "DIP_Modules:DIP-16_W17.78mm" (at 17.78 -20.32 0)
      (effects (font (size 1.27 1.27)) hide)
    )
    (property "Datasheet" "https://wiki.dfrobot.com/DFPlayer_Mini_SKU_DFR0299" (at 27.94 -17.78 0)
      (effects (font (size 1.27 1.27)) hide)
    )
    (symbol "DFPlayer_Mini_1_1"
      (rectangle (start -8.89 13.97) (end 8.89 -13.97)
        (stroke (width 0) (type default))
        (fill (type background))
      )
      (pin power_in line (at 0 16.51 270) (length 2.54)
        (name "VCC" (effects (font (size 1.27 1.27))))
        (number "1" (effects (font (size 1.27 1.27))))
      )
      (pin passive line (at 0 -16.51 90) (length 2.54) hide
        (name "GND" (effects (font (size 1.27 1.27))))
        (number "10" (effects (font (size 1.27 1.27))))
      )
      (pin input line (at -11.43 -7.62 0) (length 2.54)
        (name "IO_2" (effects (font (size 1.27 1.27))))
        (number "11" (effects (font (size 1.27 1.27))))
      )
      (pin input line (at -11.43 -3.81 0) (length 2.54)
        (name "ADKEY_1" (effects (font (size 1.27 1.27))))
        (number "12" (effects (font (size 1.27 1.27))))
      )
      (pin input line (at -11.43 -1.27 0) (length 2.54)
        (name "ADKEY_2" (effects (font (size 1.27 1.27))))
        (number "13" (effects (font (size 1.27 1.27))))
      )
      (pin bidirectional line (at -11.43 5.08 0) (length 2.54)
        (name "USB_D+" (effects (font (size 1.27 1.27))))
        (number "14" (effects (font (size 1.27 1.27))))
      )
      (pin bidirectional line (at -11.43 2.54 0) (length 2.54)
        (name "USB_D-" (effects (font (size 1.27 1.27))))
        (number "15" (effects (font (size 1.27 1.27))))
      )
      (pin output line (at 11.43 6.35 180) (length 2.54)
        (name "BUSY" (effects (font (size 1.27 1.27))))
        (number "16" (effects (font (size 1.27 1.27))))
      )
      (pin input line (at -11.43 11.43 0) (length 2.54)
        (name "RX" (effects (font (size 1.27 1.27))))
        (number "2" (effects (font (size 1.27 1.27))))
      )
      (pin output line (at -11.43 8.89 0) (length 2.54)
        (name "TX" (effects (font (size 1.27 1.27))))
        (number "3" (effects (font (size 1.27 1.27))))
      )
      (pin output line (at 11.43 -6.35 180) (length 2.54)
        (name "DAC_R" (effects (font (size 1.27 1.27))))
        (number "4" (effects (font (size 1.27 1.27))))
      )
      (pin output line (at 11.43 -3.81 180) (length 2.54)
        (name "DAC_L" (effects (font (size 1.27 1.27))))
        (number "5" (effects (font (size 1.27 1.27))))
      )
      (pin output line (at 11.43 2.54 180) (length 2.54)
        (name "SPK_1" (effects (font (size 1.27 1.27))))
        (number "6" (effects (font (size 1.27 1.27))))
      )
      (pin power_in line (at 0 -16.51 90) (length 2.54)
        (name "GND" (effects (font (size 1.27 1.27))))
        (number "7" (effects (font (size 1.27 1.27))))
      )
      (pin output line (at 11.43 0 180) (length 2.54)
        (name "SPK_2" (effects (font (size 1.27 1.27))))
        (number "8" (effects (font (size 1.27 1.27))))
      )
      (pin input line (at -11.43 -10.16 0) (length 2.54)
        (name "IO_1" (effects (font (size 1.27 1.27))))
        (number "9" (effects (font (size 1.27 1.27))))
      )
    )
  )
)
