(kicad_symbol_lib (version 20220914) (generator kicad_symbol_editor)
  (symbol "ZD25WQ16CEIGR" (in_bom yes) (on_board yes)
    (property "Reference" "U" (at -6.35 10.16 0)
      (effects (font (size 1.27 1.27)))
    )
    (property "Value" "ZD25WQ16CEIGR" (at 8.89 -12.7 0)
      (effects (font (size 1.27 1.27)))
    )
    (property "Footprint" "flashmem:USON-8_L3.0-W2.0-P0.50-BL-EP" (at 0 -21.59 0)
      (effects (font (size 1.27 1.27)) hide)
    )
    (property "Datasheet" "https://datasheet.lcsc.com/lcsc/2306200914_Zetta-ZD25WQ16CEIGR_C7304007.pdf" (at 0 -19.05 0)
      (effects (font (size 1.27 1.27)) hide)
    )
    (property "LCSC" "C7304007" (at 0 -24.13 0)
      (effects (font (size 1.27 1.27)) hide)
    )
    (symbol "ZD25WQ16CEIGR_0_1"
      (rectangle (start -7.62 8.89) (end 7.62 -11.43)
        (stroke (width 0.254) (type default))
        (fill (type background))
      )
      (pin unspecified line (at 10.16 0 180) (length 2.54)
        (name "EP" (effects (font (size 1.27 1.27))))
        (number "9" (effects (font (size 1.27 1.27))))
      )
    )
    (symbol "ZD25WQ16CEIGR_1_1"
      (pin input line (at -10.16 6.35 0) (length 2.54)
        (name "~{CS}" (effects (font (size 1.27 1.27))))
        (number "1" (effects (font (size 1.27 1.27))))
      )
      (pin bidirectional line (at -10.16 -1.27 0) (length 2.54)
        (name "DO/IO1" (effects (font (size 1.27 1.27))))
        (number "2" (effects (font (size 1.27 1.27))))
      )
      (pin bidirectional line (at -10.16 -3.81 0) (length 2.54)
        (name "~{WP}/IO2" (effects (font (size 1.27 1.27))))
        (number "3" (effects (font (size 1.27 1.27))))
      )
      (pin power_in line (at 0 -13.97 90) (length 2.54)
        (name "GND" (effects (font (size 1.27 1.27))))
        (number "4" (effects (font (size 1.27 1.27))))
      )
      (pin bidirectional line (at -10.16 1.27 0) (length 2.54)
        (name "DI/IO0" (effects (font (size 1.27 1.27))))
        (number "5" (effects (font (size 1.27 1.27))))
      )
      (pin input line (at -10.16 3.81 0) (length 2.54)
        (name "SCK" (effects (font (size 1.27 1.27))))
        (number "6" (effects (font (size 1.27 1.27))))
      )
      (pin bidirectional line (at -10.16 -6.35 0) (length 2.54)
        (name "~{HOLD}/IO3" (effects (font (size 1.27 1.27))))
        (number "7" (effects (font (size 1.27 1.27))))
      )
      (pin power_in line (at 0 11.43 270) (length 2.54)
        (name "VCC" (effects (font (size 1.27 1.27))))
        (number "8" (effects (font (size 1.27 1.27))))
      )
    )
  )
)
