(kicad_symbol_lib (version 20220914) (generator kicad_symbol_editor)
  (symbol "HR051067" (in_bom yes) (on_board yes)
    (property "Reference" "T" (at 0 12.7 0)
      (effects (font (size 1.27 1.27)))
    )
    (property "Value" "HR051067" (at 0 -10.16 0)
      (effects (font (size 1.27 1.27)))
    )
    (property "Footprint" "HR051067:XFMR-SMD_HR051067" (at 0 -15.24 0)
      (effects (font (size 1.27 1.27)) hide)
    )
    (property "Datasheet" "https://lcsc.com/product-detail/Power-Transformer_Zhongshan-HanRun-Elec-HR051067_C93830.html" (at 0 -17.78 0)
      (effects (font (size 1.27 1.27)) hide)
    )
    (property "LCSC PN" "C93830" (at 0 -20.32 0)
      (effects (font (size 1.27 1.27)) hide)
    )
    (symbol "HR051067_0_1"
      (circle (center -4.572 3.81) (radius 0.25)
        (stroke (width 0) (type default))
        (fill (type none))
      )
      (circle (center -4.57 -1.27) (radius 0.25)
        (stroke (width 0) (type default))
        (fill (type none))
      )
      (arc (start -3.81 2.54) (mid -2.5444 3.81) (end -3.81 5.08)
        (stroke (width 0) (type default))
        (fill (type none))
      )
      (arc (start -3.81 5.08) (mid -2.5444 6.35) (end -3.81 7.62)
        (stroke (width 0) (type default))
        (fill (type none))
      )
      (arc (start -3.8057 -5.08) (mid -2.54 -3.81) (end -3.8057 -2.54)
        (stroke (width 0) (type default))
        (fill (type none))
      )
      (arc (start -3.8057 -2.54) (mid -2.54 -1.27) (end -3.8057 0)
        (stroke (width 0) (type default))
        (fill (type none))
      )
      (arc (start -3.8056 7.62) (mid -2.54 8.89) (end -3.8056 10.16)
        (stroke (width 0) (type default))
        (fill (type none))
      )
      (arc (start -3.8014 -7.62) (mid -2.5357 -6.35) (end -3.8014 -5.08)
        (stroke (width 0) (type default))
        (fill (type none))
      )
      (polyline
        (pts
          (xy -6.35 -7.62)
          (xy -3.81 -7.62)
        )
        (stroke (width 0) (type default))
        (fill (type none))
      )
      (polyline
        (pts
          (xy -6.35 0)
          (xy -3.81 0)
        )
        (stroke (width 0) (type default))
        (fill (type none))
      )
      (polyline
        (pts
          (xy -6.35 0)
          (xy -3.81 0)
        )
        (stroke (width 0) (type default))
        (fill (type none))
      )
      (polyline
        (pts
          (xy -6.35 2.54)
          (xy -3.81 2.54)
        )
        (stroke (width 0) (type default))
        (fill (type none))
      )
      (polyline
        (pts
          (xy -6.35 10.16)
          (xy -3.81 10.16)
        )
        (stroke (width 0) (type default))
        (fill (type none))
      )
      (polyline
        (pts
          (xy -1.27 10.16)
          (xy -1.27 -7.62)
        )
        (stroke (width 0) (type default))
        (fill (type none))
      )
      (polyline
        (pts
          (xy 1.27 10.16)
          (xy 1.27 -7.62)
        )
        (stroke (width 0) (type default))
        (fill (type none))
      )
      (polyline
        (pts
          (xy 6.35 -5.08)
          (xy 3.81 -5.08)
        )
        (stroke (width 0) (type default))
        (fill (type none))
      )
      (polyline
        (pts
          (xy 6.35 7.62)
          (xy 3.81 7.62)
        )
        (stroke (width 0) (type default))
        (fill (type none))
      )
      (arc (start 3.802 0) (mid 2.536 -1.27) (end 3.802 -2.54)
        (stroke (width 0) (type default))
        (fill (type none))
      )
      (arc (start 3.802 2.54) (mid 2.536 1.27) (end 3.802 0)
        (stroke (width 0) (type default))
        (fill (type none))
      )
      (arc (start 3.802 5.08) (mid 2.536 3.81) (end 3.802 2.54)
        (stroke (width 0) (type default))
        (fill (type none))
      )
      (arc (start 3.806 7.62) (mid 2.54 6.35) (end 3.806 5.08)
        (stroke (width 0) (type default))
        (fill (type none))
      )
      (arc (start 3.81 -2.54) (mid 2.544 -3.81) (end 3.81 -5.08)
        (stroke (width 0) (type default))
        (fill (type none))
      )
      (circle (center 5.08 6.35) (radius 0.25)
        (stroke (width 0) (type default))
        (fill (type none))
      )
      (arc (start 6.342 0) (mid 5.076 -1.27) (end 6.342 -2.54)
        (stroke (width 0) (type default))
        (fill (type none))
      )
      (arc (start 6.342 2.54) (mid 5.076 1.27) (end 6.342 0)
        (stroke (width 0) (type default))
        (fill (type none))
      )
      (arc (start 6.346 5.08) (mid 5.08 3.81) (end 6.346 2.54)
        (stroke (width 0) (type default))
        (fill (type none))
      )
      (circle (center 7.11 3.81) (radius 0.25)
        (stroke (width 0) (type default))
        (fill (type none))
      )
      (pin passive line (at -11.43 -7.62 0) (length 5.08)
        (name "" (effects (font (size 1.27 1.27))))
        (number "1" (effects (font (size 1.27 1.27))))
      )
      (pin passive line (at -11.43 0 0) (length 5.08)
        (name "" (effects (font (size 1.27 1.27))))
        (number "2" (effects (font (size 1.27 1.27))))
      )
      (pin passive line (at 11.43 5.08 180) (length 5.08)
        (name "" (effects (font (size 1.27 1.27))))
        (number "5" (effects (font (size 1.27 1.27))))
      )
      (pin passive line (at 11.43 7.62 180) (length 5.08)
        (name "" (effects (font (size 1.27 1.27))))
        (number "6" (effects (font (size 1.27 1.27))))
      )
      (pin passive line (at 11.43 -2.54 180) (length 5.08)
        (name "" (effects (font (size 1.27 1.27))))
        (number "7" (effects (font (size 1.27 1.27))))
      )
      (pin passive line (at 11.43 -5.08 180) (length 5.08)
        (name "" (effects (font (size 1.27 1.27))))
        (number "8" (effects (font (size 1.27 1.27))))
      )
    )
    (symbol "HR051067_1_1"
      (pin passive line (at -11.43 2.54 0) (length 5.08)
        (name "" (effects (font (size 1.27 1.27))))
        (number "3" (effects (font (size 1.27 1.27))))
      )
      (pin passive line (at -11.43 10.16 0) (length 5.08)
        (name "" (effects (font (size 1.27 1.27))))
        (number "4" (effects (font (size 1.27 1.27))))
      )
    )
  )
)
