(kicad_symbol_lib (version 20220914) (generator kicad_symbol_editor)
  (symbol "SPST_LED" (pin_numbers hide) (pin_names (offset 0)) (in_bom yes) (on_board yes)
    (property "Reference" "SW1" (at 10.16 -8.255 0)
      (effects (font (size 1.778 1.778)) (justify left))
    )
    (property "Value" "SPST_LED" (at 0 -0.635 0)
      (effects (font (size 1.778 1.778)))
    )
    (property "Footprint" "switches:LED_Button_CW_GPB508AL05BR" (at 0 -13.97 0)
      (effects (font (size 1.524 1.524)) hide)
    )
    (property "Datasheet" "http://switches-connectors-custom.cwind.com/Asset/GPB508AL05BR.pdf" (at 0 -11.43 0)
      (effects (font (size 1.524 1.524)) hide)
    )
    (property "Manufacturer" "CW Industries" (at 0 -19.05 0)
      (effects (font (size 1.524 1.524)) hide)
    )
    (property "Part Number" "GPB508AL05BR" (at 0 -16.51 0)
      (effects (font (size 1.524 1.524)) hide)
    )
    (property "DigiKey Part" "SW638-ND" (at 0 -24.13 0)
      (effects (font (size 1.27 1.27)) hide)
    )
    (symbol "SPST_LED_0_0"
      (circle (center -3.81 3.175) (radius 1.27)
        (stroke (width 0) (type solid))
        (fill (type none))
      )
      (polyline
        (pts
          (xy -2.54 3.175)
          (xy 2.54 5.715)
        )
        (stroke (width 0) (type solid))
        (fill (type none))
      )
      (circle (center 3.81 3.175) (radius 1.27)
        (stroke (width 0) (type solid))
        (fill (type none))
      )
    )
    (symbol "SPST_LED_0_1"
      (rectangle (start -10.16 6.985) (end 10.16 -6.985)
        (stroke (width 0) (type solid))
        (fill (type none))
      )
      (polyline
        (pts
          (xy -10.16 -3.175)
          (xy -1.27 -3.175)
        )
        (stroke (width 0) (type solid))
        (fill (type none))
      )
      (polyline
        (pts
          (xy -5.08 3.175)
          (xy -10.16 3.175)
        )
        (stroke (width 0) (type solid))
        (fill (type none))
      )
      (polyline
        (pts
          (xy 1.27 -3.175)
          (xy 10.16 -3.175)
        )
        (stroke (width 0) (type solid))
        (fill (type none))
      )
      (polyline
        (pts
          (xy 1.27 -1.905)
          (xy 1.27 -4.445)
        )
        (stroke (width 0) (type solid))
        (fill (type none))
      )
      (polyline
        (pts
          (xy 10.16 3.175)
          (xy 5.08 3.175)
        )
        (stroke (width 0) (type solid))
        (fill (type none))
      )
      (polyline
        (pts
          (xy 1.27 -5.08)
          (xy 2.54 -6.35)
          (xy 2.54 -5.715)
        )
        (stroke (width 0) (type solid))
        (fill (type none))
      )
      (polyline
        (pts
          (xy 1.905 -4.445)
          (xy 3.175 -5.715)
          (xy 3.175 -5.08)
        )
        (stroke (width 0) (type solid))
        (fill (type none))
      )
      (polyline
        (pts
          (xy -1.27 -1.905)
          (xy 1.27 -3.175)
          (xy -1.27 -4.445)
          (xy -1.27 -1.905)
        )
        (stroke (width 0) (type solid))
        (fill (type outline))
      )
    )
    (symbol "SPST_LED_1_1"
      (pin input line (at -12.7 3.175 0) (length 2.54)
        (name "1" (effects (font (size 1.778 1.778))))
        (number "1" (effects (font (size 1.778 1.778))))
      )
      (pin input line (at 12.7 3.175 180) (length 2.54)
        (name "2" (effects (font (size 1.778 1.778))))
        (number "2" (effects (font (size 1.778 1.778))))
      )
      (pin input line (at 12.7 -3.175 180) (length 2.54)
        (name "3" (effects (font (size 1.778 1.778))))
        (number "3" (effects (font (size 1.778 1.778))))
      )
      (pin input line (at -12.7 -3.175 0) (length 2.54)
        (name "4" (effects (font (size 1.778 1.778))))
        (number "4" (effects (font (size 1.778 1.778))))
      )
    )
  )
)
