(kicad_symbol_lib (version 20220914) (generator kicad_symbol_editor)
  (symbol "VREG_MCP16311/2" (in_bom yes) (on_board yes)
    (property "Reference" "U" (at -12.7 13.97 0)
      (effects (font (size 1.27 1.27)) (justify left bottom))
    )
    (property "Value" "MCP16311/2" (at 5.08 -15.24 0)
      (effects (font (size 1.27 1.27)) (justify left bottom))
    )
    (property "Footprint" "" (at 0 0 0)
      (effects (font (size 1.27 1.27)) hide)
    )
    (property "Datasheet" "" (at 0 0 0)
      (effects (font (size 1.27 1.27)) hide)
    )
    (property "DigiKey" "" (at 0 0 0)
      (effects (font (size 1.27 1.27)) hide)
    )
    (property "LCSC" "" (at 0 0 0)
      (effects (font (size 1.27 1.27)) hide)
    )
    (property "MPN" "" (at 0 0 0)
      (effects (font (size 1.27 1.27)) hide)
    )
    (property "Mfr" "" (at 0 0 0)
      (effects (font (size 1.27 1.27)) hide)
    )
    (property "Notes" "" (at 0 0 0)
      (effects (font (size 1.27 1.27)) hide)
    )
    (symbol "VREG_MCP16311/2_1_0"
      (polyline
        (pts
          (xy -12.7 -12.7)
          (xy -12.7 12.7)
        )
        (stroke (width 0.254) (type solid))
        (fill (type none))
      )
      (polyline
        (pts
          (xy -12.7 12.7)
          (xy 12.7 12.7)
        )
        (stroke (width 0.254) (type solid))
        (fill (type none))
      )
      (polyline
        (pts
          (xy 12.7 -12.7)
          (xy -12.7 -12.7)
        )
        (stroke (width 0.254) (type solid))
        (fill (type none))
      )
      (polyline
        (pts
          (xy 12.7 12.7)
          (xy 12.7 -12.7)
        )
        (stroke (width 0.254) (type solid))
        (fill (type none))
      )
      (pin bidirectional line (at 15.24 0 180) (length 2.54)
        (name "VFB" (effects (font (size 1.27 1.27))))
        (number "1" (effects (font (size 1.27 1.27))))
      )
      (pin power_out line (at 15.24 -8.89 180) (length 2.54)
        (name "VCC" (effects (font (size 1.27 1.27))))
        (number "2" (effects (font (size 1.27 1.27))))
      )
      (pin input line (at -15.24 -7.62 0) (length 2.54)
        (name "EN" (effects (font (size 1.27 1.27))))
        (number "3" (effects (font (size 1.27 1.27))))
      )
      (pin power_in line (at -15.24 7.62 0) (length 2.54)
        (name "VIN" (effects (font (size 1.27 1.27))))
        (number "4" (effects (font (size 1.27 1.27))))
      )
      (pin power_in line (at 2.54 -15.24 90) (length 2.54)
        (name "PGND" (effects (font (size 1.27 1.27))))
        (number "5" (effects (font (size 1.27 1.27))))
      )
      (pin power_out line (at 15.24 7.62 180) (length 2.54)
        (name "SW" (effects (font (size 1.27 1.27))))
        (number "6" (effects (font (size 1.27 1.27))))
      )
      (pin passive line (at 0 15.24 270) (length 2.54)
        (name "BOOST" (effects (font (size 1.27 1.27))))
        (number "7" (effects (font (size 1.27 1.27))))
      )
      (pin power_in line (at -2.54 -15.24 90) (length 2.54)
        (name "AGND" (effects (font (size 1.27 1.27))))
        (number "8" (effects (font (size 1.27 1.27))))
      )
    )
  )
)
