(footprint "SULLINS_GWE32DHRN-T9410" (version 20211014) (generator pcbnew)
  (layer "F.Cu")
  (tedit 62E2BF52)
  (attr through_hole)
  (fp_text reference "REF**" (at -9.585 -7.235) (layer "F.SilkS")
    (effects (font (size 1 1) (thickness 0.15)))
    (tstamp aa329fd0-412f-4ddc-a81d-0e6f1373e783)
  )
  (fp_text value "SULLINS_GWE32DHRN-T9410" (at 1.845 -5.635) (layer "F.Fab")
    (effects (font (size 1 1) (thickness 0.15)))
    (tstamp 35665996-a9a4-49e2-833b-6a95a7a8eb29)
  )
  (fp_line (start -14.5 -4.3) (end 24.5 -4.3) (layer "B.SilkS") (width 0.127) (tstamp 27dd80df-8045-46d3-b98d-a9e0a3a94dc9))
  (fp_line (start -14.5 7.5) (end -14.5 -4.3) (layer "B.SilkS") (width 0.127) (tstamp a84b1c14-2b77-4a53-a0b3-2017f7fe7029))
  (fp_line (start 24.5 -4.3) (end 24.5 7.5) (layer "B.SilkS") (width 0.127) (tstamp d1f5138d-7b30-47f9-9fd8-110367cc7653))
  (fp_circle (center -15.035 -0.38) (end -14.935 -0.38) (layer "B.SilkS") (width 0.2) (fill none) (tstamp 3e0dd536-2825-4388-954c-ccad7e6f7594))
  (fp_line (start 24.5 -4.3) (end 24.5 7.5) (layer "F.SilkS") (width 0.127) (tstamp 66b13d98-cf3d-4cf6-8d37-db665b06100f))
  (fp_line (start -14.5 7.5) (end -14.5 -4.3) (layer "F.SilkS") (width 0.127) (tstamp 9086a6d1-4d72-428c-b80e-8b9c9fc32469))
  (fp_line (start -14.5 -4.3) (end 24.5 -4.3) (layer "F.SilkS") (width 0.127) (tstamp a488d914-3de8-4744-8fe2-a9a5a0ba15b7))
  (fp_circle (center -15.035 -0.38) (end -14.935 -0.38) (layer "F.SilkS") (width 0.2) (fill none) (tstamp 24961f1f-2301-4ed2-bbbf-5e6e4b5928d3))
  (fp_line (start 22.5 2.5) (end 22.5 1.1) (layer "Edge.Cuts") (width 0.01) (tstamp 205f0823-0525-4a0f-8112-4a89be3d4b0a))
  (fp_line (start 23.5 1.1) (end 23.5 7.25) (layer "Edge.Cuts") (width 0.01) (tstamp 31af357f-06b6-433b-b9f2-99892bb8a9dd))
  (fp_line (start -13.5 7.25) (end -13.5 1.1) (layer "Edge.Cuts") (width 0.01) (tstamp 39ed0960-e04d-4ac3-8018-1d76369ee384))
  (fp_line (start 23.5 7.25) (end 23.85 7.6) (layer "Edge.Cuts") (width 0.01) (tstamp 52fba8ec-6c60-46e8-9df3-5f8223ae10e9))
  (fp_line (start -15 7.6) (end -13.85 7.6) (layer "Edge.Cuts") (width 0.01) (tstamp 6f1088b2-08d0-4960-90fa-ab8daf291284))
  (fp_line (start -12.5 1.1) (end -12.5 2.5) (layer "Edge.Cuts") (width 0.01) (tstamp 80986233-9bd3-421c-b7db-9fe648686aae))
  (fp_line (start -12.5 2.5) (end 22.5 2.5) (layer "Edge.Cuts") (width 0.01) (tstamp 94dd8a37-4ad6-4a37-9274-d9e5299d1b97))
  (fp_line (start 23.85 7.6) (end 24.7 7.6) (layer "Edge.Cuts") (width 0.01) (tstamp bd02fc04-a1fc-456c-a0a8-5268db907d8a))
  (fp_line (start -13.85 7.6) (end -13.5 7.25) (layer "Edge.Cuts") (width 0.01) (tstamp e2914b14-1a2f-4e13-a522-dcf92894a4f8))
  (fp_arc (start 23 0.6) (mid 23.353553 0.746447) (end 23.5 1.1) (layer "Edge.Cuts") (width 0.01) (tstamp 00c619d9-192b-4ce0-bd00-e1d463e7187b))
  (fp_arc (start -13 0.6) (mid -12.646447 0.746447) (end -12.5 1.1) (layer "Edge.Cuts") (width 0.01) (tstamp 5837db3e-0366-49c1-96d7-12b32f703e55))
  (fp_arc (start -13.5 1.1) (mid -13.353553 0.746447) (end -13 0.6) (layer "Edge.Cuts") (width 0.01) (tstamp 957c6b4a-2f17-4166-9379-7dd868788924))
  (fp_arc (start 22.5 1.1) (mid 22.646447 0.746447) (end 23 0.6) (layer "Edge.Cuts") (width 0.01) (tstamp bacf8f5c-f904-4c90-a05f-e1984a568b32))
  (fp_line (start -14.75 15.25) (end 24.75 15.25) (layer "B.CrtYd") (width 0.05) (tstamp 96f6d9f6-d5f0-4fa4-888b-12198af3d737))
  (fp_line (start 24.75 -4.55) (end -14.75 -4.55) (layer "B.CrtYd") (width 0.05) (tstamp b2f8b330-4cfc-4edf-bcf1-2df9aeaad3f6))
  (fp_line (start -14.75 -4.55) (end -14.75 15.25) (layer "B.CrtYd") (width 0.05) (tstamp e30c349d-3244-487b-ac8d-e41258555824))
  (fp_line (start 24.75 15.25) (end 24.75 -4.55) (layer "B.CrtYd") (width 0.05) (tstamp f76d2c24-2da5-404d-b2b2-a704803e9754))
  (fp_line (start 24.75 15.25) (end 24.75 -4.55) (layer "F.CrtYd") (width 0.05) (tstamp 7a919ee3-d57a-49b0-a5a0-08140d340903))
  (fp_line (start -14.75 15.25) (end 24.75 15.25) (layer "F.CrtYd") (width 0.05) (tstamp a0452f03-bbc5-462c-bf59-74318227be32))
  (fp_line (start 24.75 -4.55) (end -14.75 -4.55) (layer "F.CrtYd") (width 0.05) (tstamp b8eb4dd4-1fe0-43ff-8109-d34b008ed3c5))
  (fp_line (start -14.75 -4.55) (end -14.75 15.25) (layer "F.CrtYd") (width 0.05) (tstamp d132825f-a298-4a38-82df-d7d8e3f6d80f))
  (fp_line (start -14.5 15) (end -14.5 -4.3) (layer "B.Fab") (width 0.127) (tstamp 131b76b8-5bfc-4d5b-9be3-bb8b437f33cb))
  (fp_line (start 24.5 -4.3) (end 24.5 15) (layer "B.Fab") (width 0.127) (tstamp 4b7e4759-e38a-4297-a0c5-e5e0d2974b22))
  (fp_line (start 24.5 15) (end -14.5 15) (layer "B.Fab") (width 0.127) (tstamp 630d968d-d170-4e6b-944d-98c0edb0ee35))
  (fp_line (start -14.5 -4.3) (end 24.5 -4.3) (layer "B.Fab") (width 0.127) (tstamp fa7b34c7-3cd9-43a2-ac6c-a8cfc44ccd74))
  (fp_circle (center -15.035 -0.38) (end -14.935 -0.38) (layer "B.Fab") (width 0.2) (fill none) (tstamp a88ef4ed-96c3-4f67-a0d2-929d40b58cf5))
  (fp_line (start -14.5 15) (end -14.5 -4.3) (layer "F.Fab") (width 0.127) (tstamp 3c866fc8-d18c-42fc-aff4-af6a042dd428))
  (fp_line (start 24.5 -4.3) (end 24.5 15) (layer "F.Fab") (width 0.127) (tstamp 3f5a7da1-06eb-4758-bce2-eeae681e6192))
  (fp_line (start 24.5 15) (end -14.5 15) (layer "F.Fab") (width 0.127) (tstamp 400c9a17-3636-4ff0-9632-30f00841dd4d))
  (fp_line (start -14.5 -4.3) (end 24.5 -4.3) (layer "F.Fab") (width 0.127) (tstamp c504ffd3-a87d-425e-ba85-98d7c6fec7b6))
  (fp_circle (center -15.035 -0.38) (end -14.935 -0.38) (layer "F.Fab") (width 0.2) (fill none) (tstamp a7035cbd-5d08-4fe9-aca3-50219fd3c2cb))
  (pad "A1" smd rect (at -11.5 0) (size 0.7 3) (layers "F.Cu" "F.Paste" "F.Mask") (tstamp 7136a99c-1393-4d64-b964-5fc779fdef86))
  (pad "A2" smd rect (at -10.5 0) (size 0.7 3) (layers "F.Cu" "F.Paste" "F.Mask") (tstamp acd7ab4b-d928-4b60-be4c-e1c8ccb60eed))
  (pad "A3" smd rect (at -9.5 0) (size 0.7 3) (layers "F.Cu" "F.Paste" "F.Mask") (tstamp 5527d9fa-5bbe-49b8-84dd-7ed29dd3b50e))
  (pad "A4" smd rect (at -8.5 0) (size 0.7 3) (layers "F.Cu" "F.Paste" "F.Mask") (tstamp 1f4276e1-cbcd-42ce-82ca-43e1a9db4def))
  (pad "A5" smd rect (at -7.5 0) (size 0.7 3) (layers "F.Cu" "F.Paste" "F.Mask") (tstamp e1fd173f-95c1-4928-a1de-6782a4638156))
  (pad "A6" smd rect (at -6.5 0) (size 0.7 3) (layers "F.Cu" "F.Paste" "F.Mask") (tstamp c3c62dca-9d59-4726-959b-e48ee56dfafb))
  (pad "A7" smd rect (at -5.5 0) (size 0.7 3) (layers "F.Cu" "F.Paste" "F.Mask") (tstamp b3c01b7e-ebcd-4773-908f-d4135622d2e6))
  (pad "A8" smd rect (at -4.5 0) (size 0.7 3) (layers "F.Cu" "F.Paste" "F.Mask") (tstamp 49220db9-5893-4ce1-94c9-cd688617c486))
  (pad "A9" smd rect (at -3.5 0) (size 0.7 3) (layers "F.Cu" "F.Paste" "F.Mask") (tstamp f7b9d4cf-ed34-4fd3-b762-b2aa5dbf85a4))
  (pad "A10" smd rect (at -2.5 0) (size 0.7 3) (layers "F.Cu" "F.Paste" "F.Mask") (tstamp 3a2d1598-8183-469f-a9ac-1dd9db6f0bc4))
  (pad "A11" smd rect (at -1.5 0) (size 0.7 3) (layers "F.Cu" "F.Paste" "F.Mask") (tstamp 45150b36-26bc-4fb6-acd3-471abe8af078))
  (pad "A12" smd rect (at 1.5 0) (size 0.7 3) (layers "F.Cu" "F.Paste" "F.Mask") (tstamp 1d0198c1-d9a8-41e7-851c-9058461ff423))
  (pad "A13" smd rect (at 2.5 0) (size 0.7 3) (layers "F.Cu" "F.Paste" "F.Mask") (tstamp ce1620cf-717a-4849-ab1f-09fe250b7051))
  (pad "A14" smd rect (at 3.5 0) (size 0.7 3) (layers "F.Cu" "F.Paste" "F.Mask") (tstamp 2ce25d2c-d1f7-4996-812d-8b498318f78b))
  (pad "A15" smd rect (at 4.5 0) (size 0.7 3) (layers "F.Cu" "F.Paste" "F.Mask") (tstamp b6508d5f-26b8-41ae-a8bb-922152ccbabf))
  (pad "A16" smd rect (at 5.5 0) (size 0.7 3) (layers "F.Cu" "F.Paste" "F.Mask") (tstamp 9f2708aa-68bb-4dd7-acb5-52a6f3899295))
  (pad "A17" smd rect (at 6.5 0) (size 0.7 3) (layers "F.Cu" "F.Paste" "F.Mask") (tstamp 872298b6-66d9-4339-a858-e0578fb8371c))
  (pad "A18" smd rect (at 7.5 0) (size 0.7 3) (layers "F.Cu" "F.Paste" "F.Mask") (tstamp f28db582-0bf0-481d-bd7e-defdfe1bad25))
  (pad "A19" smd rect (at 8.5 0) (size 0.7 3) (layers "F.Cu" "F.Paste" "F.Mask") (tstamp 35acd4a6-405a-48e2-811f-31873ceaf8bc))
  (pad "A20" smd rect (at 9.5 0) (size 0.7 3) (layers "F.Cu" "F.Paste" "F.Mask") (tstamp 968c636b-e786-4d4b-8d49-aa3af2b846dc))
  (pad "A21" smd rect (at 10.5 0) (size 0.7 3) (layers "F.Cu" "F.Paste" "F.Mask") (tstamp db60caa7-82f4-497b-b5b5-da8e692c2646))
  (pad "A22" smd rect (at 11.5 0) (size 0.7 3) (layers "F.Cu" "F.Paste" "F.Mask") (tstamp 2757cfc2-557e-4bbb-b12c-04b11e8dad8e))
  (pad "A23" smd rect (at 12.5 0) (size 0.7 3) (layers "F.Cu" "F.Paste" "F.Mask") (tstamp b196b918-2c3d-4878-b5b5-966dc92db725))
  (pad "A24" smd rect (at 13.5 0) (size 0.7 3) (layers "F.Cu" "F.Paste" "F.Mask") (tstamp 8a52b6d5-c3e9-40b9-8b3b-84e89c7c31bc))
  (pad "A25" smd rect (at 14.5 0) (size 0.7 3) (layers "F.Cu" "F.Paste" "F.Mask") (tstamp 3dd35d19-68be-409d-976e-10004fa0e55c))
  (pad "A26" smd rect (at 15.5 0) (size 0.7 3) (layers "F.Cu" "F.Paste" "F.Mask") (tstamp 19a3a3ce-c5b6-41b7-b87c-d688f6031e5b))
  (pad "A27" smd rect (at 16.5 0) (size 0.7 3) (layers "F.Cu" "F.Paste" "F.Mask") (tstamp 99d3ce37-0fc0-433b-96ce-a71df8f6f54c))
  (pad "A28" smd rect (at 17.5 0) (size 0.7 3) (layers "F.Cu" "F.Paste" "F.Mask") (tstamp f10f3c5b-84b4-4377-9775-a27c916833dd))
  (pad "A29" smd rect (at 18.5 0) (size 0.7 3) (layers "F.Cu" "F.Paste" "F.Mask") (tstamp 8840c1d8-4b11-40ca-a4d5-5d90b58ce60b))
  (pad "A30" smd rect (at 19.5 0) (size 0.7 3) (layers "F.Cu" "F.Paste" "F.Mask") (tstamp 4e6d3222-6439-4d9f-8e0c-dee04ae40d70))
  (pad "A31" smd rect (at 20.5 0) (size 0.7 3) (layers "F.Cu" "F.Paste" "F.Mask") (tstamp 40a4ae1e-2f47-4c37-b43b-45bb580b2453))
  (pad "A32" smd rect (at 21.5 0) (size 0.7 3) (layers "F.Cu" "F.Paste" "F.Mask") (tstamp a918c95f-6360-4341-a0c0-dd287847bab6))
  (pad "B1" smd rect (at -11.5 0) (size 0.7 3) (layers "B.Cu" "B.Paste" "B.Mask") (tstamp 851331d6-310b-4eb6-98cb-8fb1873b6a22))
  (pad "B2" smd rect (at -10.5 0) (size 0.7 3) (layers "B.Cu" "B.Paste" "B.Mask") (tstamp 1639eaa9-5c37-4b74-8d80-ce52707f3ab3))
  (pad "B3" smd rect (at -9.5 0) (size 0.7 3) (layers "B.Cu" "B.Paste" "B.Mask") (tstamp 99d7f88f-7caa-4234-b894-cf1ef23d0640))
  (pad "B4" smd rect (at -8.5 0) (size 0.7 3) (layers "B.Cu" "B.Paste" "B.Mask") (tstamp 39a56b59-98a7-4ac0-911e-64c1db019d37))
  (pad "B5" smd rect (at -7.5 0) (size 0.7 3) (layers "B.Cu" "B.Paste" "B.Mask") (tstamp 92cc525a-6a43-4c12-9cd1-651a3b93453a))
  (pad "B6" smd rect (at -6.5 0) (size 0.7 3) (layers "B.Cu" "B.Paste" "B.Mask") (tstamp 68a30e48-04a3-43b6-ab3e-ae4111c6038d))
  (pad "B7" smd rect (at -5.5 0) (size 0.7 3) (layers "B.Cu" "B.Paste" "B.Mask") (tstamp b3268622-e55e-40ee-94db-4a847617c349))
  (pad "B8" smd rect (at -4.5 0) (size 0.7 3) (layers "B.Cu" "B.Paste" "B.Mask") (tstamp 8344b50a-4c0e-455c-ae63-4144804b3581))
  (pad "B9" smd rect (at -3.5 0) (size 0.7 3) (layers "B.Cu" "B.Paste" "B.Mask") (tstamp eda25ad6-d3e0-46a4-a4f3-ff824771269c))
  (pad "B10" smd rect (at -2.5 0) (size 0.7 3) (layers "B.Cu" "B.Paste" "B.Mask") (tstamp b7267d4c-ea32-45fe-8b75-b19028f8bc01))
  (pad "B11" smd rect (at -1.5 0) (size 0.7 3) (layers "B.Cu" "B.Paste" "B.Mask") (tstamp afb4c8f7-617f-4a10-abff-de8c119f4def))
  (pad "B12" smd rect (at 1.5 0) (size 0.7 3) (layers "B.Cu" "B.Paste" "B.Mask") (tstamp f0339a93-fd4a-4715-a24d-b091c89b17b5))
  (pad "B13" smd rect (at 2.5 0) (size 0.7 3) (layers "B.Cu" "B.Paste" "B.Mask") (tstamp bc6b5a93-3a1c-4f83-9748-1079bf935941))
  (pad "B14" smd rect (at 3.5 0) (size 0.7 3) (layers "B.Cu" "B.Paste" "B.Mask") (tstamp 46cfc56d-2dbe-42ea-a30e-b671000cf9fb))
  (pad "B15" smd rect (at 4.5 0) (size 0.7 3) (layers "B.Cu" "B.Paste" "B.Mask") (tstamp d7d3ad57-fccf-41a4-9ea2-bf351215fbea))
  (pad "B16" smd rect (at 5.5 0) (size 0.7 3) (layers "B.Cu" "B.Paste" "B.Mask") (tstamp d60bb814-3899-4b47-a172-431aec1834f1))
  (pad "B17" smd rect (at 6.5 0) (size 0.7 3) (layers "B.Cu" "B.Paste" "B.Mask") (tstamp 3f4cb3fb-c14c-460f-8de9-05f81db9589d))
  (pad "B18" smd rect (at 7.5 0) (size 0.7 3) (layers "B.Cu" "B.Paste" "B.Mask") (tstamp b5d49f61-8d1d-409a-b324-e28ca9aa86b3))
  (pad "B19" smd rect (at 8.5 0) (size 0.7 3) (layers "B.Cu" "B.Paste" "B.Mask") (tstamp 1d3bc8b6-6c88-40e3-aae2-5524375208e9))
  (pad "B20" smd rect (at 9.5 0) (size 0.7 3) (layers "B.Cu" "B.Paste" "B.Mask") (tstamp 72b28e5a-93fd-4350-8010-1b7269d1335b))
  (pad "B21" smd rect (at 10.5 0) (size 0.7 3) (layers "B.Cu" "B.Paste" "B.Mask") (tstamp 27b7b6dc-3a18-4672-ac84-49bcbb235262))
  (pad "B22" smd rect (at 11.5 0) (size 0.7 3) (layers "B.Cu" "B.Paste" "B.Mask") (tstamp 1e1fec8f-ebd1-471a-9e42-adb4252e3b22))
  (pad "B23" smd rect (at 12.5 0) (size 0.7 3) (layers "B.Cu" "B.Paste" "B.Mask") (tstamp 9a5f58d8-a3f7-4318-8c90-85dea38016e3))
  (pad "B24" smd rect (at 13.5 0) (size 0.7 3) (layers "B.Cu" "B.Paste" "B.Mask") (tstamp 65d5cf9b-d0ac-4108-990f-9fbedc17c0bd))
  (pad "B25" smd rect (at 14.5 0) (size 0.7 3) (layers "B.Cu" "B.Paste" "B.Mask") (tstamp 20427ea1-e6ca-4fb5-8f64-2476398934cb))
  (pad "B26" smd rect (at 15.5 0) (size 0.7 3) (layers "B.Cu" "B.Paste" "B.Mask") (tstamp 38c1ab0a-87f8-4aaf-aee3-c3442f74fcd8))
  (pad "B27" smd rect (at 16.5 0) (size 0.7 3) (layers "B.Cu" "B.Paste" "B.Mask") (tstamp 42a15c94-5901-4d8b-80e6-27c537069c98))
  (pad "B28" smd rect (at 17.5 0) (size 0.7 3) (layers "B.Cu" "B.Paste" "B.Mask") (tstamp eddbecee-158e-4ce2-a87d-9fb8af083b47))
  (pad "B29" smd rect (at 18.5 0) (size 0.7 3) (layers "B.Cu" "B.Paste" "B.Mask") (tstamp 37db683b-f0cf-42c2-9ba9-bc735731b972))
  (pad "B30" smd rect (at 19.5 0) (size 0.7 3) (layers "B.Cu" "B.Paste" "B.Mask") (tstamp 026dd0b8-b3aa-4313-8eb1-59326eb4e360))
  (pad "B31" smd rect (at 20.5 0) (size 0.7 3) (layers "B.Cu" "B.Paste" "B.Mask") (tstamp 3779671b-514d-4f55-a676-5f52cab2c3b9))
  (pad "B32" smd rect (at 21.5 0) (size 0.7 3) (layers "B.Cu" "B.Paste" "B.Mask") (tstamp befa93e9-41b9-46f5-9ff5-ee84de3a96fb))
  (model "${KIPRJMOD}/../kicad-libs/pcie.pretty/GWE32DHRN-T9410.step"
    (offset (xyz 0 0 -0.27))
    (scale (xyz 1 1 1))
    (rotate (xyz -90 0 0))
  )
)
