(module Molex_KK-396_A-41792-0002_1x02_P3.96mm_Horizontal (layer F.Cu) (tedit 5F59C2C0)
  (descr "Molex KK 396 Interconnect System, old/engineering part number: A-41791-0002 example for new part number: 26-60-4020, 2 Pins (https://www.molex.com/pdm_docs/sd/026604020_sd.pdf), generated with kicad-footprint-generator")
  (tags "connector Molex KK-396 vertical")
  (fp_text reference REF** (at 1.98 -22.31) (layer F.SilkS)
    (effects (font (size 1 1) (thickness 0.15)))
  )
  (fp_text value Molex_KK-396_A-41791-0002_1x02_P3.96mm_Vertical (at 1.98 6.1) (layer F.Fab)
    (effects (font (size 1 1) (thickness 0.15)))
  )
  (fp_line (start 6.37 -21.36) (end -2.41 -21.36) (layer F.CrtYd) (width 0.05))
  (fp_line (start 6.37 5.4) (end 6.37 -21.36) (layer F.CrtYd) (width 0.05))
  (fp_line (start -2.41 5.4) (end 6.37 5.4) (layer F.CrtYd) (width 0.05))
  (fp_line (start -2.41 -21.36) (end -2.41 5.4) (layer F.CrtYd) (width 0.05))
  (fp_line (start 4.76 -20.62) (end 4.76 -21.22) (layer F.SilkS) (width 0.12))
  (fp_line (start 3.16 -20.62) (end 4.76 -20.62) (layer F.SilkS) (width 0.12))
  (fp_line (start 3.16 -21.22) (end 3.16 -20.62) (layer F.SilkS) (width 0.12))
  (fp_line (start 0.8 -20.62) (end 0.8 -21.22) (layer F.SilkS) (width 0.12))
  (fp_line (start -0.8 -20.62) (end 0.8 -20.62) (layer F.SilkS) (width 0.12))
  (fp_line (start -0.8 -21.22) (end -0.8 -20.62) (layer F.SilkS) (width 0.12))
  (fp_line (start 3.96 -7.66) (end 3.96 -5.99) (layer F.SilkS) (width 0.12))
  (fp_line (start 0 -7.66) (end 3.96 -7.66) (layer F.SilkS) (width 0.12))
  (fp_line (start 0 -5.99) (end 0 -7.66) (layer F.SilkS) (width 0.12))
  (fp_line (start 3.96 -5.99) (end 3.96 -4.99) (layer F.SilkS) (width 0.12))
  (fp_line (start 0 -5.99) (end 3.96 -5.99) (layer F.SilkS) (width 0.12))
  (fp_line (start 0 -4.99) (end 0 -5.99) (layer F.SilkS) (width 0.12))
  (fp_line (start -1.202893 0) (end -1.91 0.5) (layer F.Fab) (width 0.1))
  (fp_line (start -1.91 -0.5) (end -1.202893 0) (layer F.Fab) (width 0.1))
  (fp_line (start -2.31 -12) (end -2.31 -8) (layer F.SilkS) (width 0.12))
  (fp_line (start -2.02 -5.995) (end -2.02 -21.209) (layer F.SilkS) (width 0.12))
  (fp_line (start -0.115 -5.995) (end -2.02 -5.995) (layer F.SilkS) (width 0.12))
  (fp_line (start -0.115 -4.99) (end -0.115 -5.995) (layer F.SilkS) (width 0.12))
  (fp_line (start 4.075 -4.99) (end -0.115 -4.99) (layer F.SilkS) (width 0.12))
  (fp_line (start 4.075 -5.995) (end 4.075 -4.99) (layer F.SilkS) (width 0.12))
  (fp_line (start 5.98 -5.995) (end 4.075 -5.995) (layer F.SilkS) (width 0.12))
  (fp_line (start 5.98 -21.209) (end 5.98 -5.995) (layer F.SilkS) (width 0.12))
  (fp_line (start -2.02 -21.22) (end 5.98 -21.22) (layer F.SilkS) (width 0.12))
  (fp_line (start -1.91 3.895) (end -1.91 -5.11) (layer F.Fab) (width 0.1))
  (fp_line (start -0.005 3.895) (end -1.91 3.895) (layer F.Fab) (width 0.1))
  (fp_line (start -0.005 4.9) (end -0.005 3.895) (layer F.Fab) (width 0.1))
  (fp_line (start 3.965 4.9) (end -0.005 4.9) (layer F.Fab) (width 0.1))
  (fp_line (start 3.965 3.895) (end 3.965 4.9) (layer F.Fab) (width 0.1))
  (fp_line (start 5.87 3.895) (end 3.965 3.895) (layer F.Fab) (width 0.1))
  (fp_line (start 5.87 -5.11) (end 5.87 3.895) (layer F.Fab) (width 0.1))
  (fp_line (start -1.91 -5.11) (end 5.87 -5.11) (layer F.Fab) (width 0.1))
  (fp_text user %R (at 1.98 -4.41) (layer F.Fab)
    (effects (font (size 1 1) (thickness 0.15)))
  )
  (pad 1 thru_hole roundrect (at 0 0) (size 3.16 4.1) (drill 1.7) (layers *.Cu *.Mask) (roundrect_rratio 0.079114))
  (pad 2 thru_hole oval (at 3.96 0) (size 3.16 4.1) (drill 1.7) (layers *.Cu *.Mask))
  (model ${KIPRJMOD}/kicad-libs/molex.pretty/Molex_KK-396_A-41792-0002_1x02_P3.96mm_Horizontal.stp
    (offset (xyz 2 7.5 3.1))
    (scale (xyz 1 1 1))
    (rotate (xyz -180 0 180))
  )
)
