(footprint "Keystone-Dome-8mm" (version 20221018) (generator pcbnew)
  (layer "F.Cu")
  (attr through_hole)
  (fp_text reference "REF**" (at 0 -5.2) (layer "F.SilkS")
      (effects (font (size 1 1) (thickness 0.15)))
    (tstamp 99c77048-bbb8-46a9-819c-9431e506f372)
  )
  (fp_text value "Keystone-Dome-8mm" (at 0 5.2) (layer "F.Fab")
      (effects (font (size 1 1) (thickness 0.15)))
    (tstamp 28c29449-d534-4f04-828e-509d686c4553)
  )
  (fp_arc (start -2.8284 2.8284) (mid 0 -3.999962) (end 2.8284 2.8284)
    (stroke (width 0.25) (type solid)) (layer "F.Cu") (tstamp f58d4792-6a72-4e88-98cd-1ce638f1044d))
  (fp_line (start -2.798516 4.062723) (end 2.800001 4.099999)
    (stroke (width 0.12) (type solid)) (layer "F.CrtYd") (tstamp a27aba07-91d4-47a9-89f1-b7533a229baa))
  (fp_arc (start -3.599999 -1.800001) (mid -3.705538 -3.705538) (end -1.800001 -3.599999)
    (stroke (width 0.12) (type solid)) (layer "F.CrtYd") (tstamp 84eba6bd-6bc8-4a20-af0b-8c4c7460f1d4))
  (fp_arc (start -2.8284 2.8) (mid 0 -4.028362) (end 2.8284 2.8)
    (stroke (width 0.12) (type solid)) (layer "F.CrtYd") (tstamp c74f4557-f5f6-4a07-acfb-48191f0b1fa9))
  (fp_arc (start -2.798516 4.062723) (mid -4.018993 3.221722) (end -3.599999 1.800001)
    (stroke (width 0.12) (type solid)) (layer "F.CrtYd") (tstamp 71a89a82-8a84-44f9-a5cb-2f882b7389c4))
  (fp_arc (start 1.816923 -3.622053) (mid 3.747287 -3.727631) (end 3.599999 -1.800001)
    (stroke (width 0.12) (type solid)) (layer "F.CrtYd") (tstamp e340244d-16fb-40ee-925f-965cbca9d012))
  (fp_arc (start 3.674738 1.812824) (mid 4.042916 3.264495) (end 2.800001 4.099999)
    (stroke (width 0.12) (type solid)) (layer "F.CrtYd") (tstamp 65976302-b861-4c38-bc7f-fa747d57d5c4))
  (pad "1" smd circle (at 0 0) (size 2.5 2.5) (layers "F.Cu" "F.Mask") (tstamp 63d62879-5896-487a-a116-d708eaa8d4a7))
  (pad "2" smd circle (at -2.8284 -2.8284) (size 2.5 2.5) (layers "F.Cu" "F.Mask") (tstamp 6d9765bd-ed52-4e55-8352-5c57e842bec3))
  (pad "2" smd circle (at -2.8284 2.8284) (size 2.5 2.5) (layers "F.Cu" "F.Mask") (tstamp ac7ac5cf-b929-4104-822c-f10cabf88fbf))
  (pad "2" smd circle (at 2.8284 -2.8284) (size 2.5 2.5) (layers "F.Cu" "F.Mask") (tstamp 898318ca-6f6a-4f8c-9ccb-2e29329e7a4f))
  (pad "2" smd circle (at 2.8284 2.8284) (size 2.5 2.5) (layers "F.Cu" "F.Mask") (tstamp e163612d-85c4-4369-bdf7-facdf2a54a10))
  (model "${KIPRJMOD}/kicad-libs/models/5134TR.step"
    (offset (xyz 0 0 0))
    (scale (xyz 1 1 1))
    (rotate (xyz -90 0 0))
  )
)
