
(footprint SW_TS09-63-25-WT-160-SMT-TR (layer F.Cu) (tedit 646E8AFC)
  (descr "")
  (attr smd)
  (fp_text reference REF** (at 0.075 -3.385 0) (layer F.SilkS)
    (effects (font (size 1.0 1.0) (thickness 0.15)))
  )
  (fp_text value SW_TS09-63-25-WT-160-SMT-TR (at 14.045 3.335 0) (layer F.Fab)
    (effects (font (size 1.0 1.0) (thickness 0.15)))
  )
  (pad 1 smd rect (at -3.75 0.0) (size 1.1 1.0) (layers F.Cu F.Mask F.Paste))
  (pad 2 smd rect (at 3.75 0.0) (size 1.1 1.0) (layers F.Cu F.Mask F.Paste))
  (fp_circle (center -4.72 -1.21) (end -4.62 -1.21) (layer F.SilkS) (width 0.2))
  (fp_circle (center -4.72 -1.21) (end -4.62 -1.21) (layer F.Fab) (width 0.2))
  (fp_line (start -3.3 -2.1) (end 3.3 -2.1) (layer F.CrtYd) (width 0.05))
  (fp_line (start 3.3 -2.1) (end 3.3 -0.75) (layer F.CrtYd) (width 0.05))
  (fp_line (start 3.3 -0.75) (end 4.55 -0.75) (layer F.CrtYd) (width 0.05))
  (fp_line (start 4.55 -0.75) (end 4.55 0.75) (layer F.CrtYd) (width 0.05))
  (fp_line (start 4.55 0.75) (end 3.3 0.75) (layer F.CrtYd) (width 0.05))
  (fp_line (start 3.3 0.75) (end 3.3 2.1) (layer F.CrtYd) (width 0.05))
  (fp_line (start 3.3 2.1) (end -3.3 2.1) (layer F.CrtYd) (width 0.05))
  (fp_line (start -3.3 2.1) (end -3.3 0.75) (layer F.CrtYd) (width 0.05))
  (fp_line (start -3.3 0.75) (end -4.55 0.75) (layer F.CrtYd) (width 0.05))
  (fp_line (start -4.55 0.75) (end -4.55 -0.75) (layer F.CrtYd) (width 0.05))
  (fp_line (start -4.55 -0.75) (end -3.3 -0.75) (layer F.CrtYd) (width 0.05))
  (fp_line (start -3.3 -0.75) (end -3.3 -2.1) (layer F.CrtYd) (width 0.05))
  (fp_line (start -3.05 -1.85) (end -3.05 1.85) (layer F.Fab) (width 0.127))
  (fp_line (start -3.05 1.85) (end 3.05 1.85) (layer F.Fab) (width 0.127))
  (fp_line (start 3.05 1.85) (end 3.05 -1.85) (layer F.Fab) (width 0.127))
  (fp_line (start 3.05 -1.85) (end -3.05 -1.85) (layer F.Fab) (width 0.127))
  (fp_line (start -3.05 -0.85) (end -3.05 -1.85) (layer F.SilkS) (width 0.127))
  (fp_line (start -3.05 -1.85) (end 3.05 -1.85) (layer F.SilkS) (width 0.127))
  (fp_line (start 3.05 -1.85) (end 3.05 -0.85) (layer F.SilkS) (width 0.127))
  (fp_line (start -3.05 0.85) (end -3.05 1.85) (layer F.SilkS) (width 0.127))
  (fp_line (start -3.05 1.85) (end 3.05 1.85) (layer F.SilkS) (width 0.127))
  (fp_line (start 3.05 1.85) (end 3.05 0.85) (layer F.SilkS) (width 0.127))
)