(footprint "POWERDI-5" (version 20221018) (generator pcbnew)
  (layer "F.Cu")
  (property "DigiKey" "PDS560DICT-ND")
  (property "LCSC" "")
  (property "MPN" "PDS560-13")
  (property "Mfr" "Diodes Incorporated")
  (property "Notes" "")
  (property "Sheetfile" "Adafruit Qualia Driver.kicad_sch")
  (property "Sheetname" "")
  (property "Sim.Device" "D")
  (property "Sim.Pins" "1=K 2=A")
  (property "ki_description" "Diode, filled shape")
  (property "ki_keywords" "diode")
  (fp_text reference "D1" (at -2.34 2.99 90) (layer "F.SilkS")
      (effects (font (size 0.666496 0.666496) (thickness 0.146304)) (justify left bottom))
    (tstamp 9e50d8b9-ce4d-4842-a627-81fbb11b8967)
  )
  (fp_text value "PDS560-13" (at 2.66 3.04 90) (layer "F.Fab")
      (effects (font (size 0.36576 0.36576) (thickness 0.04064)) (justify left bottom))
    (tstamp 6e473593-13ea-400e-89d7-1ef2178ac207)
  )
  (fp_line (start -2.1 -3) (end -1.9 -3)
    (stroke (width 0.127) (type solid)) (layer "F.SilkS") (tstamp 9b81b8ed-4e78-43bf-a5aa-6b8ad5ace6f2))
  (fp_line (start -2.1 3) (end -2.1 -3)
    (stroke (width 0.127) (type solid)) (layer "F.SilkS") (tstamp db28bcc9-dca5-46ce-8afe-d36e4e583859))
  (fp_line (start -1.8 3) (end -2.1 3)
    (stroke (width 0.127) (type solid)) (layer "F.SilkS") (tstamp dcc9c9c0-60ed-429d-8ef6-b14662570fd4))
  (fp_line (start 1.9 -3.1) (end 2.1 -3.1)
    (stroke (width 0.127) (type solid)) (layer "F.SilkS") (tstamp eafa0bc0-9383-4cc1-81bd-b546c86ea741))
  (fp_line (start 2.1 -3.1) (end 2.1 3)
    (stroke (width 0.127) (type solid)) (layer "F.SilkS") (tstamp 276d8a71-8ef0-4efc-a31e-bebc21476d3f))
  (fp_line (start 2.1 3) (end 1.8 3)
    (stroke (width 0.127) (type solid)) (layer "F.SilkS") (tstamp ad5e1a35-e82d-4d40-b027-affb4a1700b1))
  (fp_line (start -2 -3.25) (end 2 -3.25)
    (stroke (width 0.127) (type solid)) (layer "F.Fab") (tstamp e413081e-6dfe-4a9b-8d77-73c83e229800))
  (fp_line (start -2 3.25) (end -2 -3.25)
    (stroke (width 0.127) (type solid)) (layer "F.Fab") (tstamp e669e262-5193-4f4f-be28-d8a925bf94ea))
  (fp_line (start 2 -3.25) (end 2 3.25)
    (stroke (width 0.127) (type solid)) (layer "F.Fab") (tstamp 861d9415-4fa6-4fed-8fdb-71aaf4441021))
  (fp_line (start 2 3.25) (end -2 3.25)
    (stroke (width 0.127) (type solid)) (layer "F.Fab") (tstamp 24c103b2-2195-4f21-a6f2-0178f3fefb0c))
  (fp_poly
    (pts
      (xy 1.769167 0.7524)
      (xy -1.769167 0.7524)
      (xy 0 -2.196212)
    )

    (stroke (width 0) (type default)) (fill solid) (layer "F.Fab") (tstamp 907c33d4-3fa0-42c4-9b74-f8cecac7cf7e))
  (fp_poly
    (pts
      (xy -1.6 -2)
      (xy 1.6 -2)
      (xy 1.6 -2.4)
      (xy -1.6 -2.4)
    )

    (stroke (width 0) (type default)) (fill solid) (layer "F.Fab") (tstamp a06433f9-1552-42a2-b1f5-126fe995305f))
  (pad "1" smd rect (at 0 -1.142) (size 3.36 4.86) (layers "F.Cu" "F.Paste" "F.Mask")
    (solder_mask_margin 0.1016) (thermal_bridge_angle 0) (tstamp 31c08fb2-9f47-4911-9f6e-5dbcbea51e46))
  (pad "2" smd rect (at -0.92 2.84) (size 1.39 1.4) (layers "F.Cu" "F.Paste" "F.Mask")
    (solder_mask_margin 0.1016) (thermal_bridge_angle 0) (tstamp e3bf348d-54b4-4682-bdda-0865585c1120))
  (pad "2" smd rect (at 0.92 2.84) (size 1.39 1.4) (layers "F.Cu" "F.Paste" "F.Mask")
    (solder_mask_margin 0.1016) (thermal_bridge_angle 0) (tstamp 8360dd42-4e85-43f0-8017-5fcfe01d51bf))
)
