(footprint "DIP-14_W15.24mm" (version 20221018) (generator pcbnew)
  (layer "F.Cu")
  (descr "14-lead though-hole mounted DIP package, row spacing 7.62 mm (300 mils)")
  (tags "THT DIP DIL PDIP 2.54mm 7.62mm 300mil")
  (attr through_hole)
  (fp_text reference "REF**" (at 7.62 -2.33) (layer "F.SilkS")
      (effects (font (size 1 1) (thickness 0.15)))
    (tstamp ab1aeba6-0260-4b2b-a55c-e0a5f11f3d49)
  )
  (fp_text value "DIP-14_W15.24mm" (at 7.62 17.57) (layer "F.Fab")
      (effects (font (size 1 1) (thickness 0.15)))
    (tstamp 60313c8a-6b76-42be-87cc-bb3c5a88b63f)
  )
  (fp_text user "${REFERENCE}" (at 7.62 7.62) (layer "F.Fab")
      (effects (font (size 1 1) (thickness 0.15)))
    (tstamp 9101c920-3f59-433a-b80f-8664fe155fea)
  )
  (fp_line (start 1.16 -1.33) (end 1.16 16.57)
    (stroke (width 0.12) (type solid)) (layer "F.SilkS") (tstamp 27ea462e-c99b-4ceb-9ed7-3dc77d037ea8))
  (fp_line (start 1.16 16.57) (end 14.08 16.57)
    (stroke (width 0.12) (type solid)) (layer "F.SilkS") (tstamp 8f6e69eb-0d6d-49da-ae61-d3987f2fda37))
  (fp_line (start 6.62 -1.33) (end 1.16 -1.33)
    (stroke (width 0.12) (type solid)) (layer "F.SilkS") (tstamp ea60351c-3739-4396-8f19-00d1b937212a))
  (fp_line (start 14.08 -1.33) (end 8.62 -1.33)
    (stroke (width 0.12) (type solid)) (layer "F.SilkS") (tstamp 8baa060e-e8b1-4e0b-9196-8206d729c378))
  (fp_line (start 14.08 16.57) (end 14.08 -1.33)
    (stroke (width 0.12) (type solid)) (layer "F.SilkS") (tstamp e77d66b0-3d33-4781-9d52-ba79e99b10a3))
  (fp_arc (start 8.62 -1.33) (mid 7.62 -0.33) (end 6.62 -1.33)
    (stroke (width 0.12) (type solid)) (layer "F.SilkS") (tstamp a13f5f32-1baa-483b-9ae9-fb5e66ca660f))
  (fp_line (start -1.1 -1.55) (end -1.1 16.8)
    (stroke (width 0.05) (type solid)) (layer "F.CrtYd") (tstamp b07aecb3-da0a-4ab9-9131-75388f71a592))
  (fp_line (start -1.1 16.8) (end 16.32 16.8)
    (stroke (width 0.05) (type solid)) (layer "F.CrtYd") (tstamp 19ffd821-d4f2-4962-a550-8eece62b7b48))
  (fp_line (start 16.32 -1.55) (end -1.1 -1.55)
    (stroke (width 0.05) (type solid)) (layer "F.CrtYd") (tstamp 92ef5397-cd40-4db0-a774-e0cf99e74591))
  (fp_line (start 16.32 16.8) (end 16.32 -1.55)
    (stroke (width 0.05) (type solid)) (layer "F.CrtYd") (tstamp 12eb80e0-7e74-4f9d-ae5b-f10091b5a464))
  (fp_line (start 0.635 -0.27) (end 1.635 -1.27)
    (stroke (width 0.1) (type solid)) (layer "F.Fab") (tstamp bf41c2de-b9cd-4643-a638-bc0e95ef8d8f))
  (fp_line (start 0.635 16.51) (end 0.635 -0.27)
    (stroke (width 0.1) (type solid)) (layer "F.Fab") (tstamp 97899c0a-fc7c-429c-885a-e7742b984a37))
  (fp_line (start 1.635 -1.27) (end 14.605 -1.27)
    (stroke (width 0.1) (type solid)) (layer "F.Fab") (tstamp afa5140c-7ca4-4c0e-815a-019913fb582e))
  (fp_line (start 14.605 -1.27) (end 14.605 16.51)
    (stroke (width 0.1) (type solid)) (layer "F.Fab") (tstamp 8f93236f-dfc3-4f3f-99a8-009d97150458))
  (fp_line (start 14.605 16.51) (end 0.635 16.51)
    (stroke (width 0.1) (type solid)) (layer "F.Fab") (tstamp cbe9cdd7-8a70-40cc-86a3-714e8b6c7658))
  (pad "1" thru_hole rect (at 0 0) (size 1.6 1.6) (drill 0.8) (layers "*.Cu" "*.Mask") (tstamp c59ff4fb-10d1-49fb-80e5-f15385e71fb6))
  (pad "2" thru_hole oval (at 0 2.54) (size 1.6 1.6) (drill 0.8) (layers "*.Cu" "*.Mask") (tstamp 2fbd18f5-2b15-4f1a-8612-5758443ef629))
  (pad "3" thru_hole oval (at 0 5.08) (size 1.6 1.6) (drill 0.8) (layers "*.Cu" "*.Mask") (tstamp 564d4e9d-3d0b-400f-aa2d-0b35e7233234))
  (pad "4" thru_hole oval (at 0 7.62) (size 1.6 1.6) (drill 0.8) (layers "*.Cu" "*.Mask") (tstamp 6f0c9286-356f-457f-b99b-4c43bcf6cd36))
  (pad "5" thru_hole oval (at 0 10.16) (size 1.6 1.6) (drill 0.8) (layers "*.Cu" "*.Mask") (tstamp c3833d2a-c9c5-4574-b104-60a29e8296a9))
  (pad "6" thru_hole oval (at 0 12.7) (size 1.6 1.6) (drill 0.8) (layers "*.Cu" "*.Mask") (tstamp 2c9b7873-0c64-4d4d-9c9c-8cc0d94e071a))
  (pad "7" thru_hole oval (at 0 15.24) (size 1.6 1.6) (drill 0.8) (layers "*.Cu" "*.Mask") (tstamp 3b4c9797-a24f-4236-be8d-2b6d982fd4f8))
  (pad "8" thru_hole oval (at 15.24 15.24) (size 1.6 1.6) (drill 0.8) (layers "*.Cu" "*.Mask") (tstamp 21ae9355-1fe5-4add-9b95-c8c79d17a749))
  (pad "9" thru_hole oval (at 15.24 12.7) (size 1.6 1.6) (drill 0.8) (layers "*.Cu" "*.Mask") (tstamp 93731e7c-c52d-418c-9c92-d642d4be7052))
  (pad "10" thru_hole oval (at 15.24 10.16) (size 1.6 1.6) (drill 0.8) (layers "*.Cu" "*.Mask") (tstamp 71443be0-a666-44ca-a1f9-a30bdf7c219c))
  (pad "11" thru_hole oval (at 15.24 7.62) (size 1.6 1.6) (drill 0.8) (layers "*.Cu" "*.Mask") (tstamp 745c9d45-ef8f-4c63-85c6-3f2158cc2c3a))
  (pad "12" thru_hole oval (at 15.24 5.08) (size 1.6 1.6) (drill 0.8) (layers "*.Cu" "*.Mask") (tstamp ce337772-ef68-446f-bc67-1d0a5a565544))
  (pad "13" thru_hole oval (at 15.24 2.54) (size 1.6 1.6) (drill 0.8) (layers "*.Cu" "*.Mask") (tstamp c9e4603b-ca50-4d3b-b070-a169abb1662e))
  (pad "14" thru_hole oval (at 15.24 0) (size 1.6 1.6) (drill 0.8) (layers "*.Cu" "*.Mask") (tstamp f1bd1ede-d0ea-4a09-91eb-46ef63d2458a))
  (model "${KICAD6_3DMODEL_DIR}/Package_DIP.3dshapes/DIP-14_W7.62mm.wrl" hide
    (offset (xyz 0 0 0))
    (scale (xyz 1 1 1))
    (rotate (xyz 0 0 0))
  )
)
