(footprint "XFMR-SMD_HR051067" (version 20221018) (generator pcbnew)
  (layer "F.Cu")
  (attr smd)
  (fp_text reference "REF**" (at 0 -10.85) (layer "F.SilkS")
      (effects (font (size 1 1) (thickness 0.15)))
    (tstamp a67e57cb-5832-4222-aa64-a39b4682908e)
  )
  (fp_text value "XFMR-SMD_HR051067" (at 0 10.85) (layer "F.Fab")
      (effects (font (size 1 1) (thickness 0.15)))
    (tstamp c249a94d-382e-4090-99ea-5c9b45ecb89a)
  )
  (fp_text user "${REFERENCE}" (at 0 0) (layer "F.Fab")
      (effects (font (size 1 1) (thickness 0.15)))
    (tstamp a6fce837-7d6f-4530-8179-4c488870f875)
  )
  (fp_line (start -6.35 -6.35) (end -4.62 -6.35)
    (stroke (width 0.25) (type solid)) (layer "F.SilkS") (tstamp 6b2083a3-5387-462c-9d94-7544854fcdc9))
  (fp_line (start -6.35 6.35) (end -6.35 -6.35)
    (stroke (width 0.25) (type solid)) (layer "F.SilkS") (tstamp 778cb93f-fe37-4699-9689-c7b5a29cbceb))
  (fp_line (start -4.62 6.35) (end -6.35 6.35)
    (stroke (width 0.25) (type solid)) (layer "F.SilkS") (tstamp 468b613a-4c7f-42d7-8828-fb860d078642))
  (fp_line (start -2.88 -6.35) (end -2.12 -6.35)
    (stroke (width 0.25) (type solid)) (layer "F.SilkS") (tstamp b44a156a-5465-4de5-a831-522115aca76f))
  (fp_line (start -2.12 6.35) (end -2.88 6.35)
    (stroke (width 0.25) (type solid)) (layer "F.SilkS") (tstamp eaf8455e-3f56-4b91-a6ea-73d257c94262))
  (fp_line (start -0.38 -6.35) (end 0.38 -6.35)
    (stroke (width 0.25) (type solid)) (layer "F.SilkS") (tstamp 3023724d-8501-40dc-9eef-48b2712cf0cd))
  (fp_line (start 0.38 6.35) (end -0.38 6.35)
    (stroke (width 0.25) (type solid)) (layer "F.SilkS") (tstamp b9ea7a6b-fbea-4886-ae55-3d83cd977c2c))
  (fp_line (start 2.12 -6.35) (end 2.88 -6.35)
    (stroke (width 0.25) (type solid)) (layer "F.SilkS") (tstamp 21460e1c-d773-4206-85b6-62e6fb11d033))
  (fp_line (start 2.88 6.35) (end 2.12 6.35)
    (stroke (width 0.25) (type solid)) (layer "F.SilkS") (tstamp eba382c6-54e2-4d59-80e8-af3c4ed1725b))
  (fp_line (start 4.62 -6.35) (end 6.35 -6.35)
    (stroke (width 0.25) (type solid)) (layer "F.SilkS") (tstamp 0f7a6f89-3818-4cdc-aa36-274637a19b9f))
  (fp_line (start 6.35 -6.35) (end 6.35 6.35)
    (stroke (width 0.25) (type solid)) (layer "F.SilkS") (tstamp 663974b2-5e8f-4824-9279-313b6a5b725e))
  (fp_line (start 6.35 6.35) (end 4.62 6.35)
    (stroke (width 0.25) (type solid)) (layer "F.SilkS") (tstamp 95d7c7b2-3b46-4d96-be93-c18393003e97))
  (fp_circle (center 5.21 7.1) (end 5.41 7.1)
    (stroke (width 0.4) (type solid)) (fill none) (layer "F.SilkS") (tstamp 3d286db2-1857-47c6-8cfd-740e8f9e78a5))
  (fp_circle (center 4.95 7.49) (end 5.15 7.49)
    (stroke (width 0.4) (type solid)) (fill none) (layer "Cmts.User") (tstamp 8076539b-9ebc-4fa6-a949-92e617e73b63))
  (fp_circle (center 6.35 7.6) (end 6.38 7.6)
    (stroke (width 0.06) (type solid)) (fill none) (layer "F.Fab") (tstamp 53cb945c-4f18-4b72-bb87-c3517b9fb8dc))
  (pad "1" smd rect (at 3.75 6.85) (size 1.27 2.5) (layers "F.Cu" "F.Paste" "F.Mask") (tstamp 0b4c9618-2dac-471a-b71c-80aefe5b606a))
  (pad "2" smd rect (at 1.25 6.85) (size 1.27 2.5) (layers "F.Cu" "F.Paste" "F.Mask") (tstamp a04c8822-f5b9-4260-99d1-ebc15f93ebd2))
  (pad "3" smd rect (at -1.25 6.85) (size 1.27 2.5) (layers "F.Cu" "F.Paste" "F.Mask") (tstamp 7d50d75d-d176-4a2c-b2d4-979128504e9a))
  (pad "4" smd rect (at -3.75 6.85) (size 1.27 2.5) (layers "F.Cu" "F.Paste" "F.Mask") (tstamp 5e8e3016-bbd6-49f2-9aef-1ded764fbf7d))
  (pad "5" smd rect (at -3.75 -6.85) (size 1.27 2.5) (layers "F.Cu" "F.Paste" "F.Mask") (tstamp 07181c40-0c27-414f-a683-b3b851f092ec))
  (pad "6" smd rect (at -1.25 -6.85) (size 1.27 2.5) (layers "F.Cu" "F.Paste" "F.Mask") (tstamp 041a9c60-597a-4a75-b745-c446be0bf497))
  (pad "7" smd rect (at 1.25 -6.85) (size 1.27 2.5) (layers "F.Cu" "F.Paste" "F.Mask") (tstamp 08fdb885-9093-4866-b6cc-ae5b53933301))
  (pad "8" smd rect (at 3.75 -6.85) (size 1.27 2.5) (layers "F.Cu" "F.Paste" "F.Mask") (tstamp f1c788fe-87ee-47b9-9de6-c0b5829858d5))
  (model "${KIPRJMOD}/kicad-libs/models/HR051067.wrl"
    (offset (xyz 0 0 0))
    (scale (xyz 1 1 1))
    (rotate (xyz 0 0 0))
  )
)
