(footprint "pcb_assembly_tooling_hole" (version 20211014) (generator pcbnew)
  (layer "F.Cu")
  (tedit 0)
  (fp_text reference "REF**" (at 0 -0.5 unlocked) (layer "F.SilkS") hide
    (effects (font (size 1 1) (thickness 0.15)))
    (tstamp 9351425c-e5af-43f7-a1d9-4a0efafe6c0d)
  )
  (fp_text value "pcb_assembly_tooling_hole" (at 0 1 unlocked) (layer "F.Fab") hide
    (effects (font (size 1 1) (thickness 0.15)))
    (tstamp 2a50f339-dcf9-4218-9dd0-a1bd01f7214b)
  )
  (pad "" np_thru_hole circle (at 0 0) (size 1.152 1.152) (drill 1.152) (layers F&B.Cu *.Mask)
    (solder_mask_margin 0.148) (tstamp 4361f34f-6697-40c4-bb56-0a9b33accff7))
)
