(module TinyFPGA-BX (layer F.Cu) (tedit 5ED7F4F2)
  (fp_text reference REF** (at 0 -19.05) (layer F.SilkS)
    (effects (font (size 1 1) (thickness 0.15)))
  )
  (fp_text value TinyFPGA-BX (at 0 -16.51) (layer F.Fab)
    (effects (font (size 1 1) (thickness 0.15)))
  )
  (fp_line (start 2.54 -17.78) (end 8.89 -17.78) (layer F.CrtYd) (width 0.12))
  (fp_line (start 2.54 -19.05) (end 2.54 -17.78) (layer F.CrtYd) (width 0.12))
  (fp_line (start -2.54 -19.05) (end 2.54 -19.05) (layer F.CrtYd) (width 0.12))
  (fp_line (start -2.54 -17.78) (end -2.54 -19.05) (layer F.CrtYd) (width 0.12))
  (fp_line (start -8.89 -17.78) (end -2.54 -17.78) (layer F.CrtYd) (width 0.12))
  (fp_line (start -8.89 -17.78) (end 8.89 -17.78) (layer F.SilkS) (width 0.12))
  (fp_line (start -8.89 17.78) (end -8.89 -17.78) (layer F.CrtYd) (width 0.12))
  (fp_line (start 8.89 17.78) (end -8.89 17.78) (layer F.CrtYd) (width 0.12))
  (fp_line (start 8.89 -17.78) (end 8.89 17.78) (layer F.CrtYd) (width 0.12))
  (fp_line (start -8.89 17.78) (end -8.89 -17.78) (layer F.SilkS) (width 0.12))
  (fp_line (start 8.89 17.78) (end -8.89 17.78) (layer F.SilkS) (width 0.12))
  (fp_line (start 8.89 -17.78) (end 8.89 17.78) (layer F.SilkS) (width 0.12))
  (pad 1.2V thru_hole circle (at 5.08 -3.81) (size 1.524 1.524) (drill 0.762) (layers *.Cu *.Mask))
  (pad RST thru_hole circle (at -5.08 10.16) (size 1.524 1.524) (drill 0.762) (layers *.Cu *.Mask))
  (pad WP thru_hole circle (at -5.08 15.24) (size 1.524 1.524) (drill 0.762) (layers *.Cu *.Mask))
  (pad GND thru_hole circle (at 0 16.51) (size 1.524 1.524) (drill 0.762) (layers *.Cu *.Mask))
  (pad F8 thru_hole circle (at 0 13.97) (size 1.524 1.524) (drill 0.762) (layers *.Cu *.Mask))
  (pad H7 thru_hole circle (at 0 11.43) (size 1.524 1.524) (drill 0.762) (layers *.Cu *.Mask))
  (pad H4 thru_hole circle (at 0 8.89) (size 1.524 1.524) (drill 0.762) (layers *.Cu *.Mask))
  (pad J4 thru_hole circle (at 0 6.35) (size 1.524 1.524) (drill 0.762) (layers *.Cu *.Mask))
  (pad J3 thru_hole circle (at 0 3.81) (size 1.524 1.524) (drill 0.762) (layers *.Cu *.Mask))
  (pad GND thru_hole circle (at 0 1.27) (size 1.524 1.524) (drill 0.762) (layers *.Cu *.Mask))
  (pad G1 thru_hole circle (at 0 -1.27) (size 1.524 1.524) (drill 0.762) (layers *.Cu *.Mask))
  (pad E8 thru_hole circle (at 2.54 -1.27) (size 1.524 1.524) (drill 0.762) (layers *.Cu *.Mask))
  (pad 3.3V thru_hole circle (at 2.54 1.27) (size 1.524 1.524) (drill 0.762) (layers *.Cu *.Mask))
  (pad J9 thru_hole circle (at 2.54 3.81) (size 1.524 1.524) (drill 0.762) (layers *.Cu *.Mask))
  (pad G9 thru_hole circle (at 2.54 6.35) (size 1.524 1.524) (drill 0.762) (layers *.Cu *.Mask))
  (pad J8 thru_hole circle (at 2.54 8.89) (size 1.524 1.524) (drill 0.762) (layers *.Cu *.Mask))
  (pad G7 thru_hole circle (at 2.54 11.43) (size 1.524 1.524) (drill 0.762) (layers *.Cu *.Mask))
  (pad G6 thru_hole circle (at 2.54 13.97) (size 1.524 1.524) (drill 0.762) (layers *.Cu *.Mask))
  (pad GND thru_hole circle (at 2.54 16.51) (size 1.524 1.524) (drill 0.762) (layers *.Cu *.Mask))
  (pad A4 thru_hole circle (at 0 -11.43) (size 1.524 1.524) (drill 0.762) (layers *.Cu *.Mask))
  (pad A3 thru_hole circle (at 0 -8.89) (size 1.524 1.524) (drill 0.762) (layers *.Cu *.Mask))
  (pad J2 thru_hole circle (at 0 -6.35) (size 1.524 1.524) (drill 0.762) (layers *.Cu *.Mask))
  (pad B2 thru_hole circle (at -2.54 -6.35) (size 1.524 1.524) (drill 0.762) (layers *.Cu *.Mask))
  (pad B3 thru_hole circle (at -2.54 -8.89) (size 1.524 1.524) (drill 0.762) (layers *.Cu *.Mask))
  (pad B4 thru_hole circle (at -2.54 -11.43) (size 1.524 1.524) (drill 0.762) (layers *.Cu *.Mask))
  (pad Vin thru_hole circle (at 7.62 -16.51) (size 1.524 1.524) (drill 0.762) (layers *.Cu *.Mask))
  (pad GND thru_hole circle (at 7.62 -13.97) (size 1.524 1.524) (drill 0.762) (layers *.Cu *.Mask))
  (pad 3.3V thru_hole circle (at 7.62 -11.43) (size 1.524 1.524) (drill 0.762) (layers *.Cu *.Mask))
  (pad A6 thru_hole circle (at 7.62 -8.89) (size 1.524 1.524) (drill 0.762) (layers *.Cu *.Mask))
  (pad B6 thru_hole circle (at 7.62 -6.35) (size 1.524 1.524) (drill 0.762) (layers *.Cu *.Mask))
  (pad A7 thru_hole circle (at 7.62 -3.81) (size 1.524 1.524) (drill 0.762) (layers *.Cu *.Mask))
  (pad B7 thru_hole circle (at 7.62 -1.27) (size 1.524 1.524) (drill 0.762) (layers *.Cu *.Mask))
  (pad A8 thru_hole circle (at 7.62 1.27) (size 1.524 1.524) (drill 0.762) (layers *.Cu *.Mask))
  (pad B8 thru_hole circle (at 7.62 3.81) (size 1.524 1.524) (drill 0.762) (layers *.Cu *.Mask))
  (pad A9 thru_hole circle (at 7.62 6.35) (size 1.524 1.524) (drill 0.762) (layers *.Cu *.Mask))
  (pad C9 thru_hole circle (at 7.62 8.89) (size 1.524 1.524) (drill 0.762) (layers *.Cu *.Mask))
  (pad D8 thru_hole circle (at 7.62 11.43) (size 1.524 1.524) (drill 0.762) (layers *.Cu *.Mask))
  (pad D9 thru_hole circle (at 7.62 13.97) (size 1.524 1.524) (drill 0.762) (layers *.Cu *.Mask))
  (pad H9 thru_hole circle (at 7.62 16.51) (size 1.524 1.524) (drill 0.762) (layers *.Cu *.Mask))
  (pad H2 thru_hole circle (at -7.62 16.51) (size 1.524 1.524) (drill 0.762) (layers *.Cu *.Mask))
  (pad J1 thru_hole circle (at -7.62 13.97) (size 1.524 1.524) (drill 0.762) (layers *.Cu *.Mask))
  (pad H1 thru_hole circle (at -7.62 11.43) (size 1.524 1.524) (drill 0.762) (layers *.Cu *.Mask))
  (pad G2 thru_hole circle (at -7.62 8.89) (size 1.524 1.524) (drill 0.762) (layers *.Cu *.Mask))
  (pad E1 thru_hole circle (at -7.62 6.35) (size 1.524 1.524) (drill 0.762) (layers *.Cu *.Mask))
  (pad E2 thru_hole circle (at -7.62 3.81) (size 1.524 1.524) (drill 0.762) (layers *.Cu *.Mask))
  (pad D1 thru_hole circle (at -7.62 1.27) (size 1.524 1.524) (drill 0.762) (layers *.Cu *.Mask))
  (pad D2 thru_hole circle (at -7.62 -1.27) (size 1.524 1.524) (drill 0.762) (layers *.Cu *.Mask))
  (pad C1 thru_hole circle (at -7.62 -3.81) (size 1.524 1.524) (drill 0.762) (layers *.Cu *.Mask))
  (pad C2 thru_hole circle (at -7.62 -6.35) (size 1.524 1.524) (drill 0.762) (layers *.Cu *.Mask))
  (pad B1 thru_hole circle (at -7.62 -8.89) (size 1.524 1.524) (drill 0.762) (layers *.Cu *.Mask))
  (pad A1 thru_hole circle (at -7.62 -11.43) (size 1.524 1.524) (drill 0.762) (layers *.Cu *.Mask))
  (pad A2 thru_hole circle (at -7.62 -13.97) (size 1.524 1.524) (drill 0.762) (layers *.Cu *.Mask))
  (pad GND thru_hole roundrect (at -7.62 -16.51) (size 1.524 1.524) (drill 0.762) (layers *.Cu *.Mask) (roundrect_rratio 0.25))
)
