ISO-10303-21;
HEADER;
FILE_DESCRIPTION(('STEP AP214'),'1');
FILE_NAME('CMI_9653S_CUD','2022-11-02T20:33:14',(''),(''),'','','');
FILE_SCHEMA(('AUTOMOTIVE_DESIGN'));
ENDSEC;
DATA;
#1=SHAPE_DEFINITION_REPRESENTATION(#2,#3);
#2=PRODUCT_DEFINITION_SHAPE('',$,#4);
#3=SHAPE_REPRESENTATION('',(#71,#127,#424,#858,#19),#11);
#4=PRODUCT_DEFINITION('design','example product_definition',#6,#5);
#5=PRODUCT_DEFINITION_CONTEXT('3D Mechanical Parts',#10,'design');
#6=PRODUCT_DEFINITION_FORMATION('1.0','first version',#8);
#7=APPLICATION_PROTOCOL_DEFINITION('international standard','automotive_design',2003,#10);
#8=PRODUCT('product','part','',(#9));
#9=PRODUCT_CONTEXT('3D Mechanical Parts',#10,'mechanical');
#10=APPLICATION_CONTEXT('Core Data for Automotive Mechanical Design Process');
#11=(GEOMETRIC_REPRESENTATION_CONTEXT(3) GLOBAL_UNCERTAINTY_ASSIGNED_CONTEXT((#12)) GLOBAL_UNIT_ASSIGNED_CONTEXT((#13,#14,#18)) REPRESENTATION_CONTEXT('ID1','3D'));
#12=UNCERTAINTY_MEASURE_WITH_UNIT(LENGTH_MEASURE(1.E-005),#13,'DISTANCE_ACCURACY_VALUE','Maximum model space distance between geometric entities at asserted connectivities');
#13=(LENGTH_UNIT() NAMED_UNIT(*) SI_UNIT(.MILLI.,.METRE.));
#14=(CONVERSION_BASED_UNIT('degree',#16) NAMED_UNIT(#15) PLANE_ANGLE_UNIT());
#15=DIMENSIONAL_EXPONENTS(0.,0.,0.,0.,0.,0.,0.);
#16=MEASURE_WITH_UNIT(PLANE_ANGLE_MEASURE(0.01745329252),#17);
#17=(NAMED_UNIT(*) PLANE_ANGLE_UNIT() SI_UNIT($,.RADIAN.));
#18=(NAMED_UNIT(*) SI_UNIT($,.STERADIAN.) SOLID_ANGLE_UNIT());
#19=AXIS2_PLACEMENT_3D('',#20,#21,#22);
#20=CARTESIAN_POINT('',(0.0,0.0,0.0));
#21=DIRECTION('',(0.0,0.0,1.0));
#22=DIRECTION('',(1.0,0.0,0.0));
#25=MECHANICAL_DESIGN_GEOMETRIC_PRESENTATION_REPRESENTATION($,(#123,#124,#125,#129,#178,#227,#276,#325,#374,#426,#495,#564,#613,#662,#711,#760,#809,#860,#929,#998,#1047,#1096,#1145,#1194,#1243),#11);
#26=PRODUCT_CATEGORY_RELATIONSHIP('','',#27,#28);
#27=PRODUCT_CATEGORY('part','');
#28=PRODUCT_RELATED_PRODUCT_CATEGORY('','',(#8));
#34=PRESENTATION_STYLE_ASSIGNMENT((#35,#40));
#35=SURFACE_STYLE_USAGE(.BOTH.,#36);
#36=SURFACE_SIDE_STYLE('',(#37));
#37=SURFACE_STYLE_FILL_AREA(#38);
#38=FILL_AREA_STYLE('',(#39));
#39=FILL_AREA_STYLE_COLOUR('',#41);
#40=CURVE_STYLE('',#42,POSITIVE_LENGTH_MEASURE(0.1),#41);
#41=COLOUR_RGB('Aluminum',0.725,0.725,0.725);
#42=DRAUGHTING_PRE_DEFINED_CURVE_FONT('continuous');
#43=PRESENTATION_STYLE_ASSIGNMENT((#44,#49));
#44=SURFACE_STYLE_USAGE(.BOTH.,#45);
#45=SURFACE_SIDE_STYLE('',(#46));
#46=SURFACE_STYLE_FILL_AREA(#47);
#47=FILL_AREA_STYLE('',(#48));
#48=FILL_AREA_STYLE_COLOUR('',#50);
#49=CURVE_STYLE('',#51,POSITIVE_LENGTH_MEASURE(0.1),#50);
#50=COLOUR_RGB('Black',0.196,0.196,0.196);
#51=DRAUGHTING_PRE_DEFINED_CURVE_FONT('continuous');
#52=PRESENTATION_STYLE_ASSIGNMENT((#53,#58));
#53=SURFACE_STYLE_USAGE(.BOTH.,#54);
#54=SURFACE_SIDE_STYLE('',(#55));
#55=SURFACE_STYLE_FILL_AREA(#56);
#56=FILL_AREA_STYLE('',(#57));
#57=FILL_AREA_STYLE_COLOUR('',#59);
#58=CURVE_STYLE('',#60,POSITIVE_LENGTH_MEASURE(0.1),#59);
#59=COLOUR_RGB('Pin1',0.588,0.588,0.588);
#60=DRAUGHTING_PRE_DEFINED_CURVE_FONT('continuous');
#61=PRESENTATION_STYLE_ASSIGNMENT((#62,#67));
#62=SURFACE_STYLE_USAGE(.BOTH.,#63);
#63=SURFACE_SIDE_STYLE('',(#64));
#64=SURFACE_STYLE_FILL_AREA(#65);
#65=FILL_AREA_STYLE('',(#66));
#66=FILL_AREA_STYLE_COLOUR('',#68);
#67=CURVE_STYLE('',#69,POSITIVE_LENGTH_MEASURE(0.1),#68);
#68=COLOUR_RGB('HeatTab',0.588,0.588,0.588);
#69=DRAUGHTING_PRE_DEFINED_CURVE_FONT('continuous');
#71=MANIFOLD_SOLID_BREP($,#72);
#72=CLOSED_SHELL('',(#73,#74,#75));
#73=ADVANCED_FACE($,(#79,#78),#96,.T.);
#74=ADVANCED_FACE($,(#80),#76,.F.);
#75=ADVANCED_FACE($,(#81),#77,.T.);
#76=PLANE($,#101);
#77=PLANE($,#102);
#78=FACE_BOUND($,#83,.T.);
#79=FACE_OUTER_BOUND($,#82,.T.);
#80=FACE_OUTER_BOUND($,#84,.T.);
#81=FACE_OUTER_BOUND($,#85,.T.);
#82=EDGE_LOOP($,(#92));
#83=EDGE_LOOP($,(#93));
#84=EDGE_LOOP($,(#94));
#85=EDGE_LOOP($,(#95));
#86=CIRCLE($,#99,0.23749);
#87=CIRCLE($,#100,0.23749);
#88=VERTEX_POINT('',#117);
#89=VERTEX_POINT('',#119);
#90=EDGE_CURVE($,#88,#88,#86,.T.);
#91=EDGE_CURVE($,#89,#89,#87,.T.);
#92=ORIENTED_EDGE($,*,*,#90,.F.);
#93=ORIENTED_EDGE($,*,*,#91,.F.);
#94=ORIENTED_EDGE($,*,*,#91,.T.);
#95=ORIENTED_EDGE($,*,*,#90,.T.);
#96=CYLINDRICAL_SURFACE($,#98,0.23749);
#97=AXIS2_PLACEMENT_3D('placement',#115,#103,#104);
#98=AXIS2_PLACEMENT_3D($,#116,#105,#106);
#99=AXIS2_PLACEMENT_3D($,#118,#107,#108);
#100=AXIS2_PLACEMENT_3D($,#120,#109,#110);
#101=AXIS2_PLACEMENT_3D($,#121,#111,#112);
#102=AXIS2_PLACEMENT_3D($,#122,#113,#114);
#103=DIRECTION('axis',(0.,1.,0.));
#104=DIRECTION('refdir',(1.,0.,0.));
#105=DIRECTION('',(0.,0.,1.));
#106=DIRECTION('',(1.,0.,0.));
#107=DIRECTION('',(0.,0.,1.));
#108=DIRECTION('',(1.,0.,0.));
#109=DIRECTION('',(0.,0.,-1.));
#110=DIRECTION('',(1.,0.,0.));
#111=DIRECTION('',(0.,0.,1.));
#112=DIRECTION('',(0.,1.,0.));
#113=DIRECTION('',(0.,0.,1.));
#114=DIRECTION('',(0.,1.,0.));
#115=CARTESIAN_POINT('',(0.,0.,0.));
#116=CARTESIAN_POINT('',(-3.8,0.0,5.004));
#117=CARTESIAN_POINT('',(-4.037,0.0,5.006));
#118=CARTESIAN_POINT('',(-3.8,0.0,5.006));
#119=CARTESIAN_POINT('',(-4.037,0.0,5.004));
#120=CARTESIAN_POINT('',(-3.8,0.0,5.004));
#121=CARTESIAN_POINT('',(-3.8,0.0,5.004));
#122=CARTESIAN_POINT('',(-3.8,0.0,5.006));
#123=STYLED_ITEM('color',(#52),#73);
#124=STYLED_ITEM('color',(#52),#74);
#125=STYLED_ITEM('color',(#52),#75);
#127=MANIFOLD_SOLID_BREP($,#128);
#128=CLOSED_SHELL('',(#130,#179,#228,#277,#326,#375));
#129=STYLED_ITEM('',(#43),#130);
#130=ADVANCED_FACE('',(#136),#131,.T.);
#131=PLANE('',#132);
#132=AXIS2_PLACEMENT_3D('',#133,#134,#135);
#133=CARTESIAN_POINT('',(-4.75,-4.801,0.051));
#134=DIRECTION('',(0.0,-1.0,0.0));
#135=DIRECTION('',(0.,0.,1.));
#136=FACE_OUTER_BOUND('',#137,.T.);
#137=EDGE_LOOP('',(#138,#148,#158,#168));
#141=CARTESIAN_POINT('',(4.75,-4.801,0.051));
#140=VERTEX_POINT('',#141);
#143=CARTESIAN_POINT('',(-4.75,-4.801,0.051));
#142=VERTEX_POINT('',#143);
#139=EDGE_CURVE('',#140,#142,#144,.T.);
#144=LINE('',#141,#146);
#146=VECTOR('',#147,9.4996);
#147=DIRECTION('',(-1.0,0.0,0.0));
#138=ORIENTED_EDGE('',*,*,#139,.F.);
#151=CARTESIAN_POINT('',(4.75,-4.801,5.004));
#150=VERTEX_POINT('',#151);
#149=EDGE_CURVE('',#150,#140,#154,.T.);
#154=LINE('',#151,#156);
#156=VECTOR('',#157,4.9529746);
#157=DIRECTION('',(0.0,0.0,-1.0));
#148=ORIENTED_EDGE('',*,*,#149,.F.);
#161=CARTESIAN_POINT('',(-4.75,-4.801,5.004));
#160=VERTEX_POINT('',#161);
#159=EDGE_CURVE('',#160,#150,#164,.T.);
#164=LINE('',#161,#166);
#166=VECTOR('',#167,9.4996);
#167=DIRECTION('',(1.0,0.0,0.0));
#158=ORIENTED_EDGE('',*,*,#159,.F.);
#169=EDGE_CURVE('',#142,#160,#174,.T.);
#174=LINE('',#143,#176);
#176=VECTOR('',#177,4.9529746);
#177=DIRECTION('',(0.0,0.0,1.0));
#168=ORIENTED_EDGE('',*,*,#169,.F.);
#178=STYLED_ITEM('',(#43),#179);
#179=ADVANCED_FACE('',(#185),#180,.T.);
#180=PLANE('',#181);
#181=AXIS2_PLACEMENT_3D('',#182,#183,#184);
#182=CARTESIAN_POINT('',(4.75,-4.801,0.051));
#183=DIRECTION('',(1.0,0.0,0.0));
#184=DIRECTION('',(0.,0.,1.));
#185=FACE_OUTER_BOUND('',#186,.T.);
#186=EDGE_LOOP('',(#187,#197,#207,#217));
#190=CARTESIAN_POINT('',(4.75,4.801,0.051));
#189=VERTEX_POINT('',#190);
#188=EDGE_CURVE('',#189,#140,#193,.T.);
#193=LINE('',#190,#195);
#195=VECTOR('',#196,9.6012);
#196=DIRECTION('',(0.0,-1.0,0.0));
#187=ORIENTED_EDGE('',*,*,#188,.F.);
#200=CARTESIAN_POINT('',(4.75,4.801,5.004));
#199=VERTEX_POINT('',#200);
#198=EDGE_CURVE('',#199,#189,#203,.T.);
#203=LINE('',#200,#205);
#205=VECTOR('',#206,4.9529746);
#206=DIRECTION('',(0.0,0.0,-1.0));
#197=ORIENTED_EDGE('',*,*,#198,.F.);
#208=EDGE_CURVE('',#150,#199,#213,.T.);
#213=LINE('',#151,#215);
#215=VECTOR('',#216,9.6012);
#216=DIRECTION('',(0.0,1.0,0.0));
#207=ORIENTED_EDGE('',*,*,#208,.F.);
#217=ORIENTED_EDGE('',*,*,#149,.T.);
#227=STYLED_ITEM('',(#43),#228);
#228=ADVANCED_FACE('',(#234),#229,.T.);
#229=PLANE('',#230);
#230=AXIS2_PLACEMENT_3D('',#231,#232,#233);
#231=CARTESIAN_POINT('',(4.75,4.801,0.051));
#232=DIRECTION('',(0.0,1.0,0.0));
#233=DIRECTION('',(0.,0.,1.));
#234=FACE_OUTER_BOUND('',#235,.T.);
#235=EDGE_LOOP('',(#236,#246,#256,#266));
#239=CARTESIAN_POINT('',(-4.75,4.801,0.051));
#238=VERTEX_POINT('',#239);
#237=EDGE_CURVE('',#238,#189,#242,.T.);
#242=LINE('',#239,#244);
#244=VECTOR('',#245,9.4996);
#245=DIRECTION('',(1.0,0.0,0.0));
#236=ORIENTED_EDGE('',*,*,#237,.F.);
#249=CARTESIAN_POINT('',(-4.75,4.801,5.004));
#248=VERTEX_POINT('',#249);
#247=EDGE_CURVE('',#248,#238,#252,.T.);
#252=LINE('',#249,#254);
#254=VECTOR('',#255,4.9529746);
#255=DIRECTION('',(0.0,0.0,-1.0));
#246=ORIENTED_EDGE('',*,*,#247,.F.);
#257=EDGE_CURVE('',#199,#248,#262,.T.);
#262=LINE('',#200,#264);
#264=VECTOR('',#265,9.4996);
#265=DIRECTION('',(-1.0,0.0,0.0));
#256=ORIENTED_EDGE('',*,*,#257,.F.);
#266=ORIENTED_EDGE('',*,*,#198,.T.);
#276=STYLED_ITEM('',(#43),#277);
#277=ADVANCED_FACE('',(#283),#278,.T.);
#278=PLANE('',#279);
#279=AXIS2_PLACEMENT_3D('',#280,#281,#282);
#280=CARTESIAN_POINT('',(-4.75,4.801,0.051));
#281=DIRECTION('',(-1.0,0.0,0.0));
#282=DIRECTION('',(0.,0.,1.));
#283=FACE_OUTER_BOUND('',#284,.T.);
#284=EDGE_LOOP('',(#285,#295,#305,#315));
#286=EDGE_CURVE('',#142,#238,#291,.T.);
#291=LINE('',#143,#293);
#293=VECTOR('',#294,9.6012);
#294=DIRECTION('',(0.0,1.0,0.0));
#285=ORIENTED_EDGE('',*,*,#286,.F.);
#295=ORIENTED_EDGE('',*,*,#169,.T.);
#306=EDGE_CURVE('',#248,#160,#311,.T.);
#311=LINE('',#249,#313);
#313=VECTOR('',#314,9.6012);
#314=DIRECTION('',(0.0,-1.0,0.0));
#305=ORIENTED_EDGE('',*,*,#306,.F.);
#315=ORIENTED_EDGE('',*,*,#247,.T.);
#325=STYLED_ITEM('',(#43),#326);
#326=ADVANCED_FACE('',(#332),#327,.T.);
#327=PLANE('',#328);
#328=AXIS2_PLACEMENT_3D('',#329,#330,#331);
#329=CARTESIAN_POINT('',(-4.75,4.801,0.051));
#330=DIRECTION('',(0.0,0.0,-1.0));
#331=DIRECTION('',(0.,1.,0.));
#332=FACE_OUTER_BOUND('',#333,.T.);
#333=EDGE_LOOP('',(#334,#344,#354,#364));
#334=ORIENTED_EDGE('',*,*,#237,.T.);
#344=ORIENTED_EDGE('',*,*,#188,.T.);
#354=ORIENTED_EDGE('',*,*,#139,.T.);
#364=ORIENTED_EDGE('',*,*,#286,.T.);
#374=STYLED_ITEM('',(#43),#375);
#375=ADVANCED_FACE('',(#381),#376,.T.);
#376=PLANE('',#377);
#377=AXIS2_PLACEMENT_3D('',#378,#379,#380);
#378=CARTESIAN_POINT('',(-4.75,-4.801,5.004));
#379=DIRECTION('',(0.0,0.0,1.0));
#380=DIRECTION('',(0.,1.,0.));
#381=FACE_OUTER_BOUND('',#382,.T.);
#382=EDGE_LOOP('',(#383,#393,#403,#413));
#383=ORIENTED_EDGE('',*,*,#159,.T.);
#393=ORIENTED_EDGE('',*,*,#208,.T.);
#403=ORIENTED_EDGE('',*,*,#257,.T.);
#413=ORIENTED_EDGE('',*,*,#306,.T.);
#424=MANIFOLD_SOLID_BREP($,#425);
#425=CLOSED_SHELL('',(#427,#496,#565,#614,#663,#712,#761,#810));
#426=STYLED_ITEM('',(#34),#427);
#427=ADVANCED_FACE('',(#433),#428,.T.);
#428=PLANE('',#429);
#429=AXIS2_PLACEMENT_3D('',#430,#431,#432);
#430=CARTESIAN_POINT('',(4.801,1.25,0.0));
#431=DIRECTION('',(0.0,1.0,0.0));
#432=DIRECTION('',(0.,0.,1.));
#433=FACE_OUTER_BOUND('',#434,.T.);
#434=EDGE_LOOP('',(#435,#445,#455,#465,#475,#485));
#438=CARTESIAN_POINT('',(2.301,1.25,0.0));
#437=VERTEX_POINT('',#438);
#440=CARTESIAN_POINT('',(4.801,1.25,0.0));
#439=VERTEX_POINT('',#440);
#436=EDGE_CURVE('',#437,#439,#441,.T.);
#441=LINE('',#438,#443);
#443=VECTOR('',#444,2.499233);
#444=DIRECTION('',(1.0,0.0,0.0));
#435=ORIENTED_EDGE('',*,*,#436,.F.);
#448=CARTESIAN_POINT('',(2.301,1.25,0.051));
#447=VERTEX_POINT('',#448);
#446=EDGE_CURVE('',#447,#437,#451,.T.);
#451=LINE('',#448,#453);
#453=VECTOR('',#454,0.0508);
#454=DIRECTION('',(0.0,0.0,-1.0));
#445=ORIENTED_EDGE('',*,*,#446,.F.);
#458=CARTESIAN_POINT('',(4.75,1.25,0.051));
#457=VERTEX_POINT('',#458);
#456=EDGE_CURVE('',#457,#447,#461,.T.);
#461=LINE('',#458,#463);
#463=VECTOR('',#464,2.448433);
#464=DIRECTION('',(-1.0,0.0,0.0));
#455=ORIENTED_EDGE('',*,*,#456,.F.);
#468=CARTESIAN_POINT('',(4.75,1.25,0.381));
#467=VERTEX_POINT('',#468);
#466=EDGE_CURVE('',#467,#457,#471,.T.);
#471=LINE('',#468,#473);
#473=VECTOR('',#474,0.3302);
#474=DIRECTION('',(0.0,0.0,-1.0));
#465=ORIENTED_EDGE('',*,*,#466,.F.);
#478=CARTESIAN_POINT('',(4.801,1.25,0.381));
#477=VERTEX_POINT('',#478);
#476=EDGE_CURVE('',#477,#467,#481,.T.);
#481=LINE('',#478,#483);
#483=VECTOR('',#484,0.0508);
#484=DIRECTION('',(-1.0,0.0,0.0));
#475=ORIENTED_EDGE('',*,*,#476,.F.);
#486=EDGE_CURVE('',#439,#477,#491,.T.);
#491=LINE('',#440,#493);
#493=VECTOR('',#494,0.381);
#494=DIRECTION('',(0.0,0.0,1.0));
#485=ORIENTED_EDGE('',*,*,#486,.F.);
#495=STYLED_ITEM('',(#34),#496);
#496=ADVANCED_FACE('',(#502),#497,.T.);
#497=PLANE('',#498);
#498=AXIS2_PLACEMENT_3D('',#499,#500,#501);
#499=CARTESIAN_POINT('',(2.301,-1.25,0.0));
#500=DIRECTION('',(0.0,-1.0,0.0));
#501=DIRECTION('',(0.,0.,1.));
#502=FACE_OUTER_BOUND('',#503,.T.);
#503=EDGE_LOOP('',(#504,#514,#524,#534,#544,#554));
#507=CARTESIAN_POINT('',(4.801,-1.25,0.0));
#506=VERTEX_POINT('',#507);
#509=CARTESIAN_POINT('',(2.301,-1.25,0.0));
#508=VERTEX_POINT('',#509);
#505=EDGE_CURVE('',#506,#508,#510,.T.);
#510=LINE('',#507,#512);
#512=VECTOR('',#513,2.499233);
#513=DIRECTION('',(-1.0,0.0,0.0));
#504=ORIENTED_EDGE('',*,*,#505,.F.);
#517=CARTESIAN_POINT('',(4.801,-1.25,0.381));
#516=VERTEX_POINT('',#517);
#515=EDGE_CURVE('',#516,#506,#520,.T.);
#520=LINE('',#517,#522);
#522=VECTOR('',#523,0.381);
#523=DIRECTION('',(0.0,0.0,-1.0));
#514=ORIENTED_EDGE('',*,*,#515,.F.);
#527=CARTESIAN_POINT('',(4.75,-1.25,0.381));
#526=VERTEX_POINT('',#527);
#525=EDGE_CURVE('',#526,#516,#530,.T.);
#530=LINE('',#527,#532);
#532=VECTOR('',#533,0.0508);
#533=DIRECTION('',(1.0,0.0,0.0));
#524=ORIENTED_EDGE('',*,*,#525,.F.);
#537=CARTESIAN_POINT('',(4.75,-1.25,0.051));
#536=VERTEX_POINT('',#537);
#535=EDGE_CURVE('',#536,#526,#540,.T.);
#540=LINE('',#537,#542);
#542=VECTOR('',#543,0.3302);
#543=DIRECTION('',(0.0,0.0,1.0));
#534=ORIENTED_EDGE('',*,*,#535,.F.);
#547=CARTESIAN_POINT('',(2.301,-1.25,0.051));
#546=VERTEX_POINT('',#547);
#545=EDGE_CURVE('',#546,#536,#550,.T.);
#550=LINE('',#547,#552);
#552=VECTOR('',#553,2.448433);
#553=DIRECTION('',(1.0,0.0,0.0));
#544=ORIENTED_EDGE('',*,*,#545,.F.);
#555=EDGE_CURVE('',#508,#546,#560,.T.);
#560=LINE('',#509,#562);
#562=VECTOR('',#563,0.0508);
#563=DIRECTION('',(0.0,0.0,1.0));
#554=ORIENTED_EDGE('',*,*,#555,.F.);
#564=STYLED_ITEM('',(#34),#565);
#565=ADVANCED_FACE('',(#571),#566,.T.);
#566=PLANE('',#567);
#567=AXIS2_PLACEMENT_3D('',#568,#569,#570);
#568=CARTESIAN_POINT('',(4.801,1.25,0.381));
#569=DIRECTION('',(0.0,0.0,1.0));
#570=DIRECTION('',(0.,1.,0.));
#571=FACE_OUTER_BOUND('',#572,.T.);
#572=EDGE_LOOP('',(#573,#583,#593,#603));
#573=ORIENTED_EDGE('',*,*,#476,.T.);
#584=EDGE_CURVE('',#526,#467,#589,.T.);
#589=LINE('',#527,#591);
#591=VECTOR('',#592,2.499999826);
#592=DIRECTION('',(0.0,1.0,0.0));
#583=ORIENTED_EDGE('',*,*,#584,.F.);
#593=ORIENTED_EDGE('',*,*,#525,.T.);
#604=EDGE_CURVE('',#477,#516,#609,.T.);
#609=LINE('',#478,#611);
#611=VECTOR('',#612,2.499999826);
#612=DIRECTION('',(0.0,-1.0,0.0));
#603=ORIENTED_EDGE('',*,*,#604,.F.);
#613=STYLED_ITEM('',(#34),#614);
#614=ADVANCED_FACE('',(#620),#615,.T.);
#615=PLANE('',#616);
#616=AXIS2_PLACEMENT_3D('',#617,#618,#619);
#617=CARTESIAN_POINT('',(4.75,1.25,0.051));
#618=DIRECTION('',(0.0,0.0,1.0));
#619=DIRECTION('',(0.,1.,0.));
#620=FACE_OUTER_BOUND('',#621,.T.);
#621=EDGE_LOOP('',(#622,#632,#642,#652));
#622=ORIENTED_EDGE('',*,*,#456,.T.);
#633=EDGE_CURVE('',#546,#447,#638,.T.);
#638=LINE('',#547,#640);
#640=VECTOR('',#641,2.499999826);
#641=DIRECTION('',(0.0,1.0,0.0));
#632=ORIENTED_EDGE('',*,*,#633,.F.);
#642=ORIENTED_EDGE('',*,*,#545,.T.);
#653=EDGE_CURVE('',#457,#536,#658,.T.);
#658=LINE('',#458,#660);
#660=VECTOR('',#661,2.499999826);
#661=DIRECTION('',(0.0,-1.0,0.0));
#652=ORIENTED_EDGE('',*,*,#653,.F.);
#662=STYLED_ITEM('',(#34),#663);
#663=ADVANCED_FACE('',(#669),#664,.T.);
#664=PLANE('',#665);
#665=AXIS2_PLACEMENT_3D('',#666,#667,#668);
#666=CARTESIAN_POINT('',(4.801,-1.25,0.0));
#667=DIRECTION('',(1.0,0.0,0.0));
#668=DIRECTION('',(0.,0.,1.));
#669=FACE_OUTER_BOUND('',#670,.T.);
#670=EDGE_LOOP('',(#671,#681,#691,#701));
#672=EDGE_CURVE('',#439,#506,#677,.T.);
#677=LINE('',#440,#679);
#679=VECTOR('',#680,2.499999826);
#680=DIRECTION('',(0.0,-1.0,0.0));
#671=ORIENTED_EDGE('',*,*,#672,.F.);
#681=ORIENTED_EDGE('',*,*,#486,.T.);
#691=ORIENTED_EDGE('',*,*,#604,.T.);
#701=ORIENTED_EDGE('',*,*,#515,.T.);
#711=STYLED_ITEM('',(#34),#712);
#712=ADVANCED_FACE('',(#718),#713,.T.);
#713=PLANE('',#714);
#714=AXIS2_PLACEMENT_3D('',#715,#716,#717);
#715=CARTESIAN_POINT('',(2.301,1.25,0.0));
#716=DIRECTION('',(-1.0,0.0,0.0));
#717=DIRECTION('',(0.,0.,1.));
#718=FACE_OUTER_BOUND('',#719,.T.);
#719=EDGE_LOOP('',(#720,#730,#740,#750));
#721=EDGE_CURVE('',#508,#437,#726,.T.);
#726=LINE('',#509,#728);
#728=VECTOR('',#729,2.499999826);
#729=DIRECTION('',(0.0,1.0,0.0));
#720=ORIENTED_EDGE('',*,*,#721,.F.);
#730=ORIENTED_EDGE('',*,*,#555,.T.);
#740=ORIENTED_EDGE('',*,*,#633,.T.);
#750=ORIENTED_EDGE('',*,*,#446,.T.);
#760=STYLED_ITEM('',(#34),#761);
#761=ADVANCED_FACE('',(#767),#762,.T.);
#762=PLANE('',#763);
#763=AXIS2_PLACEMENT_3D('',#764,#765,#766);
#764=CARTESIAN_POINT('',(4.75,1.25,0.051));
#765=DIRECTION('',(-1.0,0.0,0.0));
#766=DIRECTION('',(0.,0.,1.));
#767=FACE_OUTER_BOUND('',#768,.T.);
#768=EDGE_LOOP('',(#769,#779,#789,#799));
#769=ORIENTED_EDGE('',*,*,#653,.T.);
#779=ORIENTED_EDGE('',*,*,#535,.T.);
#789=ORIENTED_EDGE('',*,*,#584,.T.);
#799=ORIENTED_EDGE('',*,*,#466,.T.);
#809=STYLED_ITEM('',(#34),#810);
#810=ADVANCED_FACE('',(#816),#811,.T.);
#811=PLANE('',#812);
#812=AXIS2_PLACEMENT_3D('',#813,#814,#815);
#813=CARTESIAN_POINT('',(4.801,-1.25,0.0));
#814=DIRECTION('',(0.0,0.0,-1.0));
#815=DIRECTION('',(0.,1.,0.));
#816=FACE_OUTER_BOUND('',#817,.T.);
#817=EDGE_LOOP('',(#818,#828,#838,#848));
#818=ORIENTED_EDGE('',*,*,#505,.T.);
#828=ORIENTED_EDGE('',*,*,#721,.T.);
#838=ORIENTED_EDGE('',*,*,#436,.T.);
#848=ORIENTED_EDGE('',*,*,#672,.T.);
#858=MANIFOLD_SOLID_BREP($,#859);
#859=CLOSED_SHELL('',(#861,#930,#999,#1048,#1097,#1146,#1195,#1244));
#860=STYLED_ITEM('',(#34),#861);
#861=ADVANCED_FACE('',(#867),#862,.T.);
#862=PLANE('',#863);
#863=AXIS2_PLACEMENT_3D('',#864,#865,#866);
#864=CARTESIAN_POINT('',(-4.801,-1.25,0.0));
#865=DIRECTION('',(0.0,-1.0,0.0));
#866=DIRECTION('',(0.,0.,1.));
#867=FACE_OUTER_BOUND('',#868,.T.);
#868=EDGE_LOOP('',(#869,#879,#889,#899,#909,#919));
#872=CARTESIAN_POINT('',(-2.301,-1.25,0.0));
#871=VERTEX_POINT('',#872);
#874=CARTESIAN_POINT('',(-4.801,-1.25,0.0));
#873=VERTEX_POINT('',#874);
#870=EDGE_CURVE('',#871,#873,#875,.T.);
#875=LINE('',#872,#877);
#877=VECTOR('',#878,2.499233);
#878=DIRECTION('',(-1.0,0.0,0.0));
#869=ORIENTED_EDGE('',*,*,#870,.F.);
#882=CARTESIAN_POINT('',(-2.301,-1.25,0.051));
#881=VERTEX_POINT('',#882);
#880=EDGE_CURVE('',#881,#871,#885,.T.);
#885=LINE('',#882,#887);
#887=VECTOR('',#888,0.0508);
#888=DIRECTION('',(0.0,0.0,-1.0));
#879=ORIENTED_EDGE('',*,*,#880,.F.);
#892=CARTESIAN_POINT('',(-4.75,-1.25,0.051));
#891=VERTEX_POINT('',#892);
#890=EDGE_CURVE('',#891,#881,#895,.T.);
#895=LINE('',#892,#897);
#897=VECTOR('',#898,2.448433);
#898=DIRECTION('',(1.0,0.0,0.0));
#889=ORIENTED_EDGE('',*,*,#890,.F.);
#902=CARTESIAN_POINT('',(-4.75,-1.25,0.381));
#901=VERTEX_POINT('',#902);
#900=EDGE_CURVE('',#901,#891,#905,.T.);
#905=LINE('',#902,#907);
#907=VECTOR('',#908,0.3302);
#908=DIRECTION('',(0.0,0.0,-1.0));
#899=ORIENTED_EDGE('',*,*,#900,.F.);
#912=CARTESIAN_POINT('',(-4.801,-1.25,0.381));
#911=VERTEX_POINT('',#912);
#910=EDGE_CURVE('',#911,#901,#915,.T.);
#915=LINE('',#912,#917);
#917=VECTOR('',#918,0.0508);
#918=DIRECTION('',(1.0,0.0,0.0));
#909=ORIENTED_EDGE('',*,*,#910,.F.);
#920=EDGE_CURVE('',#873,#911,#925,.T.);
#925=LINE('',#874,#927);
#927=VECTOR('',#928,0.381);
#928=DIRECTION('',(0.0,0.0,1.0));
#919=ORIENTED_EDGE('',*,*,#920,.F.);
#929=STYLED_ITEM('',(#34),#930);
#930=ADVANCED_FACE('',(#936),#931,.T.);
#931=PLANE('',#932);
#932=AXIS2_PLACEMENT_3D('',#933,#934,#935);
#933=CARTESIAN_POINT('',(-2.301,1.25,0.0));
#934=DIRECTION('',(0.0,1.0,0.0));
#935=DIRECTION('',(0.,0.,1.));
#936=FACE_OUTER_BOUND('',#937,.T.);
#937=EDGE_LOOP('',(#938,#948,#958,#968,#978,#988));
#941=CARTESIAN_POINT('',(-4.801,1.25,0.0));
#940=VERTEX_POINT('',#941);
#943=CARTESIAN_POINT('',(-2.301,1.25,0.0));
#942=VERTEX_POINT('',#943);
#939=EDGE_CURVE('',#940,#942,#944,.T.);
#944=LINE('',#941,#946);
#946=VECTOR('',#947,2.499233);
#947=DIRECTION('',(1.0,0.0,0.0));
#938=ORIENTED_EDGE('',*,*,#939,.F.);
#951=CARTESIAN_POINT('',(-4.801,1.25,0.381));
#950=VERTEX_POINT('',#951);
#949=EDGE_CURVE('',#950,#940,#954,.T.);
#954=LINE('',#951,#956);
#956=VECTOR('',#957,0.381);
#957=DIRECTION('',(0.0,0.0,-1.0));
#948=ORIENTED_EDGE('',*,*,#949,.F.);
#961=CARTESIAN_POINT('',(-4.75,1.25,0.381));
#960=VERTEX_POINT('',#961);
#959=EDGE_CURVE('',#960,#950,#964,.T.);
#964=LINE('',#961,#966);
#966=VECTOR('',#967,0.0508);
#967=DIRECTION('',(-1.0,0.0,0.0));
#958=ORIENTED_EDGE('',*,*,#959,.F.);
#971=CARTESIAN_POINT('',(-4.75,1.25,0.051));
#970=VERTEX_POINT('',#971);
#969=EDGE_CURVE('',#970,#960,#974,.T.);
#974=LINE('',#971,#976);
#976=VECTOR('',#977,0.3302);
#977=DIRECTION('',(0.0,0.0,1.0));
#968=ORIENTED_EDGE('',*,*,#969,.F.);
#981=CARTESIAN_POINT('',(-2.301,1.25,0.051));
#980=VERTEX_POINT('',#981);
#979=EDGE_CURVE('',#980,#970,#984,.T.);
#984=LINE('',#981,#986);
#986=VECTOR('',#987,2.448433);
#987=DIRECTION('',(-1.0,0.0,0.0));
#978=ORIENTED_EDGE('',*,*,#979,.F.);
#989=EDGE_CURVE('',#942,#980,#994,.T.);
#994=LINE('',#943,#996);
#996=VECTOR('',#997,0.0508);
#997=DIRECTION('',(0.0,0.0,1.0));
#988=ORIENTED_EDGE('',*,*,#989,.F.);
#998=STYLED_ITEM('',(#34),#999);
#999=ADVANCED_FACE('',(#1005),#1000,.T.);
#1000=PLANE('',#1001);
#1001=AXIS2_PLACEMENT_3D('',#1002,#1003,#1004);
#1002=CARTESIAN_POINT('',(-4.801,-1.25,0.381));
#1003=DIRECTION('',(0.0,0.0,1.0));
#1004=DIRECTION('',(0.,1.,0.));
#1005=FACE_OUTER_BOUND('',#1006,.T.);
#1006=EDGE_LOOP('',(#1007,#1017,#1027,#1037));
#1007=ORIENTED_EDGE('',*,*,#910,.T.);
#1018=EDGE_CURVE('',#960,#901,#1023,.T.);
#1023=LINE('',#961,#1025);
#1025=VECTOR('',#1026,2.499999826);
#1026=DIRECTION('',(0.0,-1.0,0.0));
#1017=ORIENTED_EDGE('',*,*,#1018,.F.);
#1027=ORIENTED_EDGE('',*,*,#959,.T.);
#1038=EDGE_CURVE('',#911,#950,#1043,.T.);
#1043=LINE('',#912,#1045);
#1045=VECTOR('',#1046,2.499999826);
#1046=DIRECTION('',(0.0,1.0,0.0));
#1037=ORIENTED_EDGE('',*,*,#1038,.F.);
#1047=STYLED_ITEM('',(#34),#1048);
#1048=ADVANCED_FACE('',(#1054),#1049,.T.);
#1049=PLANE('',#1050);
#1050=AXIS2_PLACEMENT_3D('',#1051,#1052,#1053);
#1051=CARTESIAN_POINT('',(-4.75,-1.25,0.051));
#1052=DIRECTION('',(0.0,0.0,1.0));
#1053=DIRECTION('',(0.,1.,0.));
#1054=FACE_OUTER_BOUND('',#1055,.T.);
#1055=EDGE_LOOP('',(#1056,#1066,#1076,#1086));
#1056=ORIENTED_EDGE('',*,*,#890,.T.);
#1067=EDGE_CURVE('',#980,#881,#1072,.T.);
#1072=LINE('',#981,#1074);
#1074=VECTOR('',#1075,2.499999826);
#1075=DIRECTION('',(0.0,-1.0,0.0));
#1066=ORIENTED_EDGE('',*,*,#1067,.F.);
#1076=ORIENTED_EDGE('',*,*,#979,.T.);
#1087=EDGE_CURVE('',#891,#970,#1092,.T.);
#1092=LINE('',#892,#1094);
#1094=VECTOR('',#1095,2.499999826);
#1095=DIRECTION('',(0.0,1.0,0.0));
#1086=ORIENTED_EDGE('',*,*,#1087,.F.);
#1096=STYLED_ITEM('',(#34),#1097);
#1097=ADVANCED_FACE('',(#1103),#1098,.T.);
#1098=PLANE('',#1099);
#1099=AXIS2_PLACEMENT_3D('',#1100,#1101,#1102);
#1100=CARTESIAN_POINT('',(-4.801,1.25,0.0));
#1101=DIRECTION('',(-1.0,0.0,0.0));
#1102=DIRECTION('',(0.,0.,1.));
#1103=FACE_OUTER_BOUND('',#1104,.T.);
#1104=EDGE_LOOP('',(#1105,#1115,#1125,#1135));
#1106=EDGE_CURVE('',#873,#940,#1111,.T.);
#1111=LINE('',#874,#1113);
#1113=VECTOR('',#1114,2.499999826);
#1114=DIRECTION('',(0.0,1.0,0.0));
#1105=ORIENTED_EDGE('',*,*,#1106,.F.);
#1115=ORIENTED_EDGE('',*,*,#920,.T.);
#1125=ORIENTED_EDGE('',*,*,#1038,.T.);
#1135=ORIENTED_EDGE('',*,*,#949,.T.);
#1145=STYLED_ITEM('',(#34),#1146);
#1146=ADVANCED_FACE('',(#1152),#1147,.T.);
#1147=PLANE('',#1148);
#1148=AXIS2_PLACEMENT_3D('',#1149,#1150,#1151);
#1149=CARTESIAN_POINT('',(-2.301,-1.25,0.0));
#1150=DIRECTION('',(1.0,0.0,0.0));
#1151=DIRECTION('',(0.,0.,1.));
#1152=FACE_OUTER_BOUND('',#1153,.T.);
#1153=EDGE_LOOP('',(#1154,#1164,#1174,#1184));
#1155=EDGE_CURVE('',#942,#871,#1160,.T.);
#1160=LINE('',#943,#1162);
#1162=VECTOR('',#1163,2.499999826);
#1163=DIRECTION('',(0.0,-1.0,0.0));
#1154=ORIENTED_EDGE('',*,*,#1155,.F.);
#1164=ORIENTED_EDGE('',*,*,#989,.T.);
#1174=ORIENTED_EDGE('',*,*,#1067,.T.);
#1184=ORIENTED_EDGE('',*,*,#880,.T.);
#1194=STYLED_ITEM('',(#34),#1195);
#1195=ADVANCED_FACE('',(#1201),#1196,.T.);
#1196=PLANE('',#1197);
#1197=AXIS2_PLACEMENT_3D('',#1198,#1199,#1200);
#1198=CARTESIAN_POINT('',(-4.75,-1.25,0.051));
#1199=DIRECTION('',(1.0,0.0,0.0));
#1200=DIRECTION('',(0.,0.,1.));
#1201=FACE_OUTER_BOUND('',#1202,.T.);
#1202=EDGE_LOOP('',(#1203,#1213,#1223,#1233));
#1203=ORIENTED_EDGE('',*,*,#1087,.T.);
#1213=ORIENTED_EDGE('',*,*,#969,.T.);
#1223=ORIENTED_EDGE('',*,*,#1018,.T.);
#1233=ORIENTED_EDGE('',*,*,#900,.T.);
#1243=STYLED_ITEM('',(#34),#1244);
#1244=ADVANCED_FACE('',(#1250),#1245,.T.);
#1245=PLANE('',#1246);
#1246=AXIS2_PLACEMENT_3D('',#1247,#1248,#1249);
#1247=CARTESIAN_POINT('',(-4.801,1.25,0.0));
#1248=DIRECTION('',(0.0,0.0,-1.0));
#1249=DIRECTION('',(0.,1.,0.));
#1250=FACE_OUTER_BOUND('',#1251,.T.);
#1251=EDGE_LOOP('',(#1252,#1262,#1272,#1282));
#1252=ORIENTED_EDGE('',*,*,#939,.T.);
#1262=ORIENTED_EDGE('',*,*,#1155,.T.);
#1272=ORIENTED_EDGE('',*,*,#870,.T.);
#1282=ORIENTED_EDGE('',*,*,#1106,.T.);
ENDSEC;
END-ISO-10303-21;
