#VRML V2.0 utf8
# 3D model generated by easyeda2kicad.py (https://github.com/uPesy/easyeda2kicad.py)

Shape{
    appearance Appearance {
        material  Material 	{
            diffuseColor 1.0 1.0 1.0
            specularColor 0.5019607843137255 0.5019607843137255 0.5019607843137255
            ambientIntensity 0.2
            transparency 0
            shininess 0.5
        }
    }
    geometry IndexedFaceSet {
        ccw TRUE
        solid FALSE
        coord DEF co Coordinate {
            point [
                0.0169 -0.689 0.0, -0.689 -0.689 0.0, -0.689 -0.5118 0.0, -0.6496 -0.1772 0.0, -0.689 -0.1772 0.0, -0.689 -0.0712 0.0, -0.2559 0.5118 0.0, -0.689 0.5118 0.0, -0.689 0.689 0.0, 0.0342 -0.0172 0.0, 0.0759 -0.0172 0.0, 0.0759 -0.0576 0.0, 0.5709 0.1772 0.0, 0.689 0.1772 0.0, 0.5709 0.0787 0.0, 0.689 -0.0712 0.0, 0.1282 0.0342 0.0, 0.1425 0.0361 0.0, 0.1483 0.0344 0.0, 0.2733 -0.0705 0.0, 0.1501 -0.0712 0.0, 0.2128 -0.0705 0.0, 0.1567 -0.0695 0.0, 0.179 -0.0614 0.0, 0.0169 0.0787 0.0, 0.0284 -0.0576 0.0, 0.0169 -0.0712 0.0, 0.0284 -0.0705 0.0, 0.0918 -0.0705 0.0, 0.1148 -0.0644 0.0, 0.1306 -0.0703 0.0, 0.1401 -0.0712 0.0, 0.0918 0.0476 0.0, 0.0313 0.0476 0.0, 0.0313 0.0346 0.0, 0.0759 0.0346 0.0, 0.0759 -0.0043 0.0, 0.0342 -0.0043 0.0, 0.1875 -0.0556 0.0, 0.1927 -0.0498 0.0, 0.2128 -0.0576 0.0, 0.1966 -0.0422 0.0, 0.2574 -0.0576 0.0, 0.1148 0.0285 0.0, 0.1148 -0.0514 0.0, 0.1294 -0.0573 0.0, 0.1451 -0.059 0.0, 0.193 0.0201 0.0, 0.187 0.0301 0.0, 0.2574 0.0476 0.0, 0.1426 0.049 0.0, 0.1285 0.0481 0.0, 0.1148 0.0443 0.0, 0.1749 0.022 0.0, 0.179 0.0172 0.0, 0.1584 -0.0559 0.0, 0.1822 0.0109 0.0, 0.1848 0.0018 0.0, 0.1868 -0.0127 0.0, 0.1841 -0.0271 0.0, 0.1667 -0.0528 0.0, 0.1677 0.027 0.0, 0.1799 -0.0395 0.0, 0.1759 -0.0458 0.0, 0.1723 -0.0494 0.0, 0.1999 -0.0312 0.0, 0.2027 -0.0137 0.0, 0.2 -0.0014 0.0, 0.181 0.0361 0.0, 0.1731 0.0408 0.0, 0.1614 0.045 0.0, 0.2733 0.0476 0.0, 0.689 -0.5118 0.0, 0.689 -0.689 0.0, 0.2559 -0.5118 0.0, 0.0433 -0.5118 0.0, 0.0433 -0.1181 0.0, 0.689 -0.1772 0.0, 0.5709 -0.1772 0.0, 0.5709 -0.1181 0.0, 0.2559 -0.1181 0.0, 0.1473 -0.072 0.0, -0.1156 -0.0705 0.0, -0.0983 -0.0705 0.0, -0.1876 -0.0705 0.0, -0.1757 -0.0374 0.0, -0.1269 -0.0374 0.0, -0.2049 -0.0705 0.0, -0.0786 -0.0436 0.0, -0.0722 -0.0533 0.0, -0.066 -0.059 0.0, -0.0578 -0.0635 0.0, -0.689 0.1772 0.0, -0.5709 0.1772 0.0, -0.5709 -0.0197 0.0, -0.3543 -0.0197 0.0, -0.1588 0.0476 0.0, -0.2559 0.0787 0.0, -0.041 0.0449 0.0, -0.0614 0.0385 0.0, -0.0591 0.0787 0.0, 0.0169 0.689 0.0, -0.0591 0.5118 0.0, -0.143 0.0476 0.0, -0.071 0.0328 0.0, -0.0768 0.0271 0.0, -0.0815 0.0194 0.0, -0.0458 -0.0672 0.0, -0.0268 -0.0705 0.0, 0.0054 -0.0705 0.0, 0.0054 0.0476 0.0, -0.028 0.0476 0.0, -0.0856 0.0081 0.0, -0.0897 -0.01 0.0, -0.0864 -0.0224 0.0, 0.689 0.689 0.0, 0.689 0.5118 0.0, 0.0169 0.5118 0.0, 0.0169 -0.1181 0.0, -0.252 -0.1181 0.0, -0.3504 -0.2165 0.0, -0.6496 -0.2165 0.0, 0.0169 -0.5118 0.0, 0.215 -0.4684 0.3346, 0.215 -0.4605 0.315, 0.1826 -0.4742 0.315, -0.4978 -0.1334 0.3346, -0.4904 -0.1334 0.315, -0.498 -0.1012 0.315, -0.0212 0.5149 0.3346, -0.0212 0.5077 0.315, -0.017 0.5079 0.315, 0.5014 -0.119 0.3346, 0.4941 -0.119 0.315, 0.4901 -0.1343 0.315, 0.5316 -0.1456 0.4331, 0.5463 -0.0735 0.4331, 0.5108 -0.0687 0.3346, 0.5133 -0.0455 0.3346, 0.5512 -0.0 0.4331, 0.5062 -0.0455 0.315, -0.0184 0.5509 0.4331, -0.0917 0.5435 0.4331, -0.0803 0.5091 0.3346, -0.5401 -0.1098 0.4331, -0.5207 -0.1808 0.4331, -0.4868 -0.1691 0.3346, -0.4781 -0.1925 0.3346, -0.4919 -0.2486 0.4331, -0.4703 -0.1925 0.315, 0.1981 -0.5144 0.4331, 0.2649 -0.4834 0.4331, 0.2477 -0.4519 0.3346, 0.274 -0.4365 0.3346, 0.3269 -0.4437 0.4331, 0.274 -0.428 0.315, 0.5074 -0.2152 0.4331, 0.4679 -0.1984 0.315, 0.4742 -0.2809 0.4331, 0.4372 -0.259 0.315, 0.4326 -0.3416 0.4331, 0.3988 -0.315 0.315, 0.3832 -0.3962 0.4331, 0.3533 -0.3653 0.315, 0.3014 -0.4091 0.315, 0.1278 -0.5362 0.4331, 0.1178 -0.4943 0.315, 0.0552 -0.5484 0.4331, 0.0509 -0.5056 0.315, -0.0184 -0.5509 0.4331, -0.017 -0.5079 0.315, -0.0917 -0.5435 0.4331, -0.0845 -0.5011 0.315, -0.1633 -0.5264 0.4331, -0.1506 -0.4854 0.315, -0.232 -0.5 0.4331, -0.2139 -0.461 0.315, -0.2966 -0.4646 0.4331, -0.2734 -0.4284 0.315, -0.3559 -0.4209 0.4331, -0.3281 -0.3881 0.315, -0.4088 -0.3697 0.4331, -0.3769 -0.3409 0.315, -0.4544 -0.3119 0.4331, -0.419 -0.2876 0.315, -0.4536 -0.2292 0.315, -0.0803 0.5018 0.315, -0.0845 0.5011 0.315, -0.1506 0.4854 0.315, -0.1633 0.5264 0.4331, -0.2139 0.461 0.315, -0.232 0.5 0.4331, -0.2734 0.4284 0.315, -0.2966 0.4646 0.4331, -0.3281 0.3881 0.315, -0.3559 0.4209 0.4331, -0.3769 0.3409 0.315, -0.4088 0.3697 0.4331, -0.419 0.2876 0.315, -0.4544 0.3119 0.4331, -0.4536 0.2292 0.315, -0.4919 0.2486 0.4331, -0.4801 0.1667 0.315, -0.5207 0.1808 0.4331, -0.498 0.1012 0.315, -0.5401 0.1098 0.4331, -0.5071 0.0339 0.315, -0.55 0.0368 0.4331, -0.5071 -0.0339 0.315, -0.55 -0.0368 0.4331, 0.0552 0.5484 0.4331, 0.0509 0.5056 0.315, 0.1278 0.5362 0.4331, 0.1178 0.4943 0.315, 0.1981 0.5144 0.4331, 0.1826 0.4742 0.315, 0.2649 0.4834 0.4331, 0.2442 0.4457 0.315, 0.3269 0.4437 0.4331, 0.3014 0.4091 0.315, 0.3832 0.3962 0.4331, 0.3533 0.3653 0.315, 0.4326 0.3416 0.4331, 0.3988 0.315 0.315, 0.4742 0.2809 0.4331, 0.4372 0.259 0.315, 0.5074 0.2152 0.4331, 0.4679 0.1984 0.315, 0.5316 0.1456 0.4331, 0.4901 0.1343 0.315, 0.5463 0.0735 0.4331, 0.5037 0.0677 0.315, 0.5082 0.0 0.315, -0.1683 -0.1925 0.315, 0.215 -0.119 0.315, -0.0948 -0.119 0.315, 0.274 -0.119 0.315, -0.0212 -0.0455 0.315, -0.0803 -0.021 0.315, -0.1927 -0.1334 0.315, 0.689 -0.689 0.1181, 0.689 -0.1772 0.0591, 0.689 0.5118 0.0591, 0.689 0.689 0.1181, 0.689 0.1772 0.0591, 0.689 -0.5118 0.0591, -0.689 0.689 0.1181, -0.689 -0.5118 0.0591, -0.689 -0.689 0.1181, -0.689 -0.1772 0.0591, -0.689 0.5118 0.0591, -0.689 0.1772 0.0591, 0.6648 -0.6648 0.315, 0.4455 -0.6648 0.315, 0.46 -0.6503 0.4331, -0.6503 -0.6503 0.4331, 0.6648 -0.4455 0.315, 0.6503 -0.46 0.4331, 0.6503 0.6503 0.4331, -0.6503 0.6503 0.4331, -0.1683 -0.1925 0.3346, -0.0212 -0.0455 0.3346, -0.0803 -0.021 0.3346, 0.274 -0.119 0.3346, 0.215 -0.119 0.3346, -0.1927 -0.1334 0.3346, -0.0948 -0.119 0.3346, -0.0948 -0.119 0.3346
            ]
        }
        coordIndex [
            0,1,2,-1,3,4,5,-1,6,7,8,-1,9,10,11,-1,12,13,14,-1,14,13,15,-1,16,17,18,-1,19,20,21,-1,21,20,22,-1,21,22,23,-1,24,25,26,-1,26,25,27,-1,26,27,28,-1,29,30,28,-1,28,30,31,-1,28,31,26,-1,32,33,24,-1,24,33,34,-1,35,36,34,-1,34,36,37,-1,34,37,24,-1,24,37,9,-1,24,9,25,-1,25,9,11,-1,23,38,21,-1,21,38,39,-1,21,39,40,-1,40,39,41,-1,40,41,42,-1,43,16,44,-1,44,16,18,-1,44,18,45,-1,45,18,46,-1,47,48,49,-1,50,51,24,-1,24,51,52,-1,24,52,32,-1,32,52,43,-1,32,43,28,-1,28,43,44,-1,28,44,29,-1,53,54,55,-1,55,54,56,-1,55,56,57,-1,57,58,55,-1,55,58,59,-1,55,59,60,-1,46,18,55,-1,55,18,61,-1,55,61,53,-1,62,63,59,-1,59,63,64,-1,59,64,60,-1,41,65,42,-1,42,65,66,-1,42,66,49,-1,49,66,67,-1,49,67,47,-1,48,68,49,-1,49,68,69,-1,49,69,70,-1,70,50,49,-1,49,50,24,-1,49,24,71,-1,71,24,14,-1,71,14,19,-1,19,14,15,-1,19,15,20,-1,72,73,74,-1,74,73,0,-1,75,76,31,-1,77,78,15,-1,15,78,79,-1,15,79,20,-1,20,79,80,-1,20,80,81,-1,81,80,74,-1,82,83,26,-1,84,85,86,-1,86,82,84,-1,84,82,26,-1,84,26,87,-1,88,89,83,-1,83,89,90,-1,83,90,91,-1,92,93,5,-1,5,93,94,-1,87,95,96,-1,96,95,97,-1,96,97,6,-1,98,99,100,-1,8,101,6,-1,6,101,102,-1,6,102,96,-1,96,102,100,-1,96,100,103,-1,103,100,99,-1,99,104,103,-1,103,104,105,-1,103,105,106,-1,91,107,83,-1,83,107,108,-1,83,108,26,-1,26,108,109,-1,26,109,24,-1,24,109,110,-1,24,110,100,-1,100,110,111,-1,100,111,98,-1,106,112,103,-1,103,112,113,-1,103,113,83,-1,83,113,114,-1,83,114,88,-1,115,116,101,-1,101,116,117,-1,101,117,102,-1,31,76,26,-1,26,76,118,-1,26,118,119,-1,120,121,119,-1,119,121,3,-1,119,3,26,-1,26,3,5,-1,26,5,87,-1,87,5,94,-1,87,94,95,-1,2,122,0,-1,0,122,75,-1,0,75,74,-1,74,75,31,-1,74,31,81,-1,123,124,125,-1,126,127,128,-1,129,130,131,-1,132,133,134,-1,135,136,137,-1,137,136,138,-1,138,136,139,-1,138,139,140,-1,141,142,143,-1,144,145,146,-1,146,145,147,-1,147,145,148,-1,147,148,149,-1,150,151,152,-1,152,151,153,-1,153,151,154,-1,153,154,155,-1,137,132,135,-1,135,132,134,-1,135,134,156,-1,156,134,157,-1,156,157,158,-1,158,157,159,-1,158,159,160,-1,160,159,161,-1,160,161,162,-1,162,161,163,-1,162,163,154,-1,154,163,164,-1,154,164,155,-1,152,123,150,-1,150,123,125,-1,150,125,165,-1,165,125,166,-1,165,166,167,-1,167,166,168,-1,167,168,169,-1,169,168,170,-1,169,170,171,-1,171,170,172,-1,171,172,173,-1,173,172,174,-1,173,174,175,-1,175,174,176,-1,175,176,177,-1,177,176,178,-1,177,178,179,-1,179,178,180,-1,179,180,181,-1,181,180,182,-1,181,182,183,-1,183,182,184,-1,183,184,148,-1,148,184,185,-1,148,185,149,-1,186,143,187,-1,187,143,142,-1,187,142,188,-1,188,142,189,-1,188,189,190,-1,190,189,191,-1,190,191,192,-1,192,191,193,-1,192,193,194,-1,194,193,195,-1,194,195,196,-1,196,195,197,-1,196,197,198,-1,198,197,199,-1,198,199,200,-1,200,199,201,-1,200,201,202,-1,202,201,203,-1,202,203,204,-1,204,203,205,-1,204,205,206,-1,206,205,207,-1,206,207,208,-1,208,207,209,-1,208,209,128,-1,128,209,144,-1,128,144,126,-1,126,144,146,-1,143,129,141,-1,141,129,131,-1,141,131,210,-1,210,131,211,-1,210,211,212,-1,212,211,213,-1,212,213,214,-1,214,213,215,-1,214,215,216,-1,216,215,217,-1,216,217,218,-1,218,217,219,-1,218,219,220,-1,220,219,221,-1,220,221,222,-1,222,221,223,-1,222,223,224,-1,224,223,225,-1,224,225,226,-1,226,225,227,-1,226,227,228,-1,228,227,229,-1,228,229,230,-1,230,229,231,-1,230,231,139,-1,139,231,232,-1,139,232,140,-1,233,149,185,-1,124,234,125,-1,125,234,235,-1,233,168,235,-1,235,168,166,-1,235,166,125,-1,174,172,233,-1,233,172,170,-1,233,170,168,-1,185,184,233,-1,233,184,182,-1,233,182,180,-1,180,178,233,-1,233,178,176,-1,233,176,174,-1,236,155,164,-1,164,163,236,-1,236,163,161,-1,236,161,159,-1,159,157,236,-1,236,157,134,-1,236,134,133,-1,237,140,232,-1,213,211,237,-1,237,211,131,-1,237,131,130,-1,221,219,237,-1,232,231,237,-1,237,231,229,-1,237,229,227,-1,219,217,237,-1,237,217,215,-1,237,215,213,-1,227,225,237,-1,237,225,223,-1,237,223,221,-1,238,186,187,-1,198,200,238,-1,127,239,128,-1,128,239,238,-1,128,238,208,-1,208,238,206,-1,200,202,238,-1,238,202,204,-1,238,204,206,-1,187,188,238,-1,238,188,190,-1,238,190,192,-1,192,194,238,-1,238,194,196,-1,238,196,198,-1,240,73,72,-1,241,77,15,-1,116,115,242,-1,242,115,243,-1,242,243,244,-1,244,243,240,-1,72,245,240,-1,240,245,241,-1,240,241,244,-1,244,241,15,-1,244,15,13,-1,8,246,101,-1,101,246,243,-1,101,243,115,-1,2,1,247,-1,247,1,248,-1,247,248,249,-1,246,8,7,-1,5,4,249,-1,7,250,246,-1,246,250,251,-1,246,251,248,-1,248,251,249,-1,249,251,92,-1,249,92,5,-1,73,240,0,-1,0,240,248,-1,0,248,1,-1,240,252,253,-1,254,255,253,-1,253,255,248,-1,253,248,240,-1,252,240,256,-1,256,240,243,-1,256,243,257,-1,257,243,258,-1,259,258,246,-1,246,258,243,-1,255,259,248,-1,248,259,246,-1,135,156,257,-1,175,177,255,-1,228,230,258,-1,258,230,139,-1,258,139,257,-1,257,139,136,-1,257,136,135,-1,156,158,257,-1,257,158,160,-1,257,160,254,-1,254,160,162,-1,254,162,154,-1,175,255,173,-1,154,151,254,-1,254,151,150,-1,254,150,165,-1,165,167,254,-1,254,167,169,-1,254,169,255,-1,255,169,171,-1,255,171,173,-1,177,179,255,-1,255,179,181,-1,255,181,183,-1,210,212,258,-1,258,212,214,-1,258,214,216,-1,216,218,258,-1,258,218,220,-1,258,220,222,-1,183,148,255,-1,255,148,145,-1,255,145,144,-1,210,258,141,-1,141,258,259,-1,141,259,142,-1,222,224,258,-1,258,224,226,-1,258,226,228,-1,144,209,255,-1,255,209,207,-1,255,207,259,-1,259,207,205,-1,205,203,259,-1,259,203,201,-1,259,201,199,-1,199,197,259,-1,259,197,195,-1,259,195,193,-1,193,191,259,-1,259,191,189,-1,259,189,142,-1,146,147,260,-1,129,143,261,-1,261,143,262,-1,153,263,152,-1,152,263,264,-1,152,264,123,-1,126,146,265,-1,265,146,260,-1,265,260,262,-1,262,260,266,-1,262,266,261,-1,261,266,264,-1,261,264,138,-1,138,264,263,-1,138,263,137,-1,137,263,132,-1,126,265,127,-1,127,265,239,-1,149,233,147,-1,147,233,260,-1,123,264,124,-1,124,264,234,-1,155,236,153,-1,153,236,263,-1,132,263,133,-1,133,263,236,-1,140,237,138,-1,138,237,261,-1,129,261,130,-1,130,261,237,-1,186,238,143,-1,143,238,262,-1,265,262,239,-1,239,262,238,-1,266,260,235,-1,235,260,233,-1,264,266,234,-1,234,266,235,-1,256,253,252,-1,257,254,256,-1,256,254,253,-1,
        ]
    }
}
Shape{
    appearance Appearance {
        material  Material 	{
            diffuseColor 0.7529411764705882 0.7529411764705882 0.7529411764705882
            specularColor 0.3764705882352941 0.3764705882352941 0.3764705882352941
            ambientIntensity 0.2
            transparency 0
            shininess 0.5
        }
    }
    geometry IndexedFaceSet {
        ccw TRUE
        solid FALSE
        coord DEF co Coordinate {
            point [
                0.7283 0.1772 0.0591, 0.7283 0.5118 0.0591, 0.689 0.1772 0.0591, 0.689 0.5118 0.0591, 0.689 0.5118 0.0, 0.7283 0.5118 -0.0079, 0.0169 0.5118 0.0, -0.0591 0.5118 -0.0079, -0.0591 0.5118 0.0, -0.0591 0.0787 -0.0079, -0.0591 0.0787 0.0, 0.0169 0.0787 0.0, 0.5709 0.0787 -0.0079, 0.5709 0.0787 0.0, 0.5709 0.1772 -0.0079, 0.5709 0.1772 0.0, 0.689 0.1772 0.0, 0.7283 0.1772 -0.0079, 0.7283 -0.5118 0.0591, 0.7283 -0.1772 0.0591, 0.689 -0.5118 0.0591, 0.689 -0.1772 0.0591, 0.5709 -0.1772 -0.0079, 0.5709 -0.1772 0.0, 0.689 -0.1772 0.0, 0.7283 -0.1772 -0.0079, 0.5709 -0.1181 -0.0079, 0.5709 -0.1181 0.0, 0.2559 -0.1181 -0.0079, 0.2559 -0.1181 0.0, 0.2559 -0.5118 -0.0079, 0.2559 -0.5118 0.0, 0.689 -0.5118 0.0, 0.7283 -0.5118 -0.0079, -0.689 0.5118 0.0591, -0.7283 0.5118 0.0591, -0.689 0.1772 0.0591, -0.7283 0.1772 0.0591, -0.5709 0.1772 -0.0079, -0.5709 0.1772 0.0, -0.689 0.1772 0.0, -0.7283 0.1772 -0.0079, -0.5709 -0.0197 -0.0079, -0.5709 -0.0197 0.0, -0.3543 -0.0197 -0.0079, -0.3543 -0.0197 0.0, -0.2559 0.0787 -0.0079, -0.2559 0.0787 0.0, -0.2559 0.5118 -0.0079, -0.2559 0.5118 0.0, -0.689 0.5118 0.0, -0.7283 0.5118 -0.0079, -0.689 -0.1772 0.0591, -0.7283 -0.1772 0.0591, -0.689 -0.5118 0.0591, -0.7283 -0.5118 0.0591, -0.689 -0.5118 0.0, 0.0433 -0.5118 0.0, 0.0169 -0.5118 0.0, 0.0433 -0.5118 -0.0079, -0.7283 -0.5118 -0.0079, 0.0433 -0.1181 -0.0079, 0.0433 -0.1181 0.0, 0.0169 -0.1181 0.0, -0.252 -0.1181 -0.0079, -0.252 -0.1181 0.0, -0.3504 -0.2165 -0.0079, -0.3504 -0.2165 0.0, -0.6496 -0.2165 -0.0079, -0.6496 -0.2165 0.0, -0.6496 -0.1772 -0.0079, -0.6496 -0.1772 0.0, -0.689 -0.1772 0.0, -0.7283 -0.1772 -0.0079, -0.7283 -0.1772 -0.0079
            ]
        }
        coordIndex [
            0,1,2,-1,2,1,3,-1,3,1,4,-1,4,1,5,-1,4,5,6,-1,6,5,7,-1,6,7,8,-1,7,9,8,-1,8,9,10,-1,10,9,11,-1,11,9,12,-1,11,12,13,-1,12,14,13,-1,13,14,15,-1,15,14,16,-1,16,14,17,-1,16,17,2,-1,2,17,0,-1,5,1,17,-1,17,1,0,-1,12,9,14,-1,14,9,7,-1,14,7,17,-1,17,7,5,-1,18,19,20,-1,20,19,21,-1,22,23,24,-1,21,19,24,-1,24,19,25,-1,24,25,22,-1,22,26,23,-1,23,26,27,-1,26,28,27,-1,27,28,29,-1,28,30,29,-1,29,30,31,-1,31,30,32,-1,32,30,33,-1,32,33,20,-1,20,33,18,-1,25,19,33,-1,33,19,18,-1,25,33,22,-1,22,33,30,-1,22,30,26,-1,26,30,28,-1,34,35,36,-1,36,35,37,-1,38,39,40,-1,36,37,40,-1,40,37,41,-1,40,41,38,-1,38,42,39,-1,39,42,43,-1,42,44,43,-1,43,44,45,-1,44,46,45,-1,45,46,47,-1,46,48,47,-1,47,48,49,-1,49,48,50,-1,50,48,51,-1,50,51,34,-1,34,51,35,-1,41,37,51,-1,51,37,35,-1,38,41,51,-1,44,42,46,-1,46,42,38,-1,46,38,48,-1,48,38,51,-1,52,53,54,-1,54,53,55,-1,56,54,55,-1,57,58,59,-1,59,58,56,-1,59,56,60,-1,60,56,55,-1,59,61,57,-1,57,61,62,-1,62,61,63,-1,63,61,64,-1,63,64,65,-1,64,66,65,-1,65,66,67,-1,66,68,67,-1,67,68,69,-1,68,70,69,-1,69,70,71,-1,71,70,72,-1,72,70,73,-1,72,73,52,-1,52,73,53,-1,60,55,73,-1,73,55,53,-1,73,70,68,-1,64,61,66,-1,66,61,59,-1,66,59,68,-1,68,59,60,-1,68,60,73,-1,
        ]
    }
}
Shape{
    appearance Appearance {
        material  Material 	{
            diffuseColor 0.0 0.0 0.0
            specularColor 0.0 0.0 0.0
            ambientIntensity 0.2
            transparency 0
            shininess 0.5
        }
    }
    geometry IndexedFaceSet {
        ccw TRUE
        solid FALSE
        coord DEF co Coordinate {
            point [
                -0.1269 -0.0374 0.0, -0.1269 -0.0374 0.0039, -0.1156 -0.0705 0.0, -0.1156 -0.0705 0.0039, -0.1757 -0.0374 0.0, -0.1757 -0.0374 0.0039, -0.1876 -0.0705 0.0, -0.1876 -0.0705 0.0039, -0.2049 -0.0705 0.0, -0.2049 -0.0705 0.0039, -0.1588 0.0476 0.0, -0.1588 0.0476 0.0039, -0.143 0.0476 0.0, -0.143 0.0476 0.0039, -0.0983 -0.0705 0.0, -0.0983 -0.0705 0.0039, -0.1309 -0.0244 0.0039, -0.1485 0.0249 0.0039, -0.1516 0.0291 0.0039, -0.1504 0.0332 0.0039, -0.1497 0.029 0.0039, -0.1704 -0.0244 0.0039, -0.1526 0.0249 0.0039, -0.1309 -0.0244 0.0, -0.1485 0.0249 0.0, -0.1704 -0.0244 0.0, -0.1526 0.0249 0.0, -0.1516 0.0291 0.0, -0.1504 0.0332 0.0, -0.1497 0.029 0.0, 0.0054 -0.0705 0.0, 0.0054 -0.0705 0.0039, 0.0054 0.0476 0.0, 0.0054 0.0476 0.0039, -0.0268 -0.0705 0.0, -0.0268 -0.0705 0.0039, -0.0897 -0.01 0.0, -0.0897 -0.01 0.0039, -0.0864 -0.0224 0.0039, -0.0864 -0.0224 0.0, -0.0786 -0.0436 0.0039, -0.0786 -0.0436 0.0, -0.0722 -0.0533 0.0039, -0.0722 -0.0533 0.0, -0.066 -0.059 0.0039, -0.066 -0.059 0.0, -0.0578 -0.0635 0.0039, -0.0578 -0.0635 0.0, -0.0458 -0.0672 0.0039, -0.0458 -0.0672 0.0, -0.028 0.0476 0.0, -0.028 0.0476 0.0039, -0.041 0.0449 0.0039, -0.041 0.0449 0.0, -0.0614 0.0385 0.0039, -0.0614 0.0385 0.0, -0.071 0.0328 0.0039, -0.071 0.0328 0.0, -0.0768 0.0271 0.0039, -0.0768 0.0271 0.0, -0.0815 0.0194 0.0039, -0.0815 0.0194 0.0, -0.0856 0.0081 0.0039, -0.0856 0.0081 0.0, -0.0699 0.0057 0.0039, -0.0739 -0.0103 0.0039, -0.0717 -0.0245 0.0039, -0.0691 -0.0336 0.0039, -0.066 -0.0397 0.0039, -0.0621 -0.0442 0.0039, -0.0559 -0.0487 0.0039, -0.0438 -0.0536 0.0039, -0.0651 0.0174 0.0039, -0.0608 0.0234 0.0039, -0.0565 0.027 0.0039, -0.0505 0.03 0.0039, -0.0417 0.0325 0.0039, -0.0279 0.0346 0.0039, -0.0105 0.0346 0.0039, -0.0105 -0.0576 0.0039, -0.0272 -0.0576 0.0039, -0.0739 -0.0103 0.0, -0.0699 0.0057 0.0, -0.0651 0.0174 0.0, -0.0608 0.0234 0.0, -0.0565 0.027 0.0, -0.0505 0.03 0.0, -0.0417 0.0325 0.0, -0.0279 0.0346 0.0, -0.0105 0.0346 0.0, -0.0105 -0.0576 0.0, -0.0272 -0.0576 0.0, -0.0438 -0.0536 0.0, -0.0559 -0.0487 0.0, -0.0621 -0.0442 0.0, -0.066 -0.0397 0.0, -0.0691 -0.0336 0.0, -0.0717 -0.0245 0.0, 0.0342 -0.0043 0.0, 0.0342 -0.0043 0.0039, 0.0342 -0.0172 0.0, 0.0342 -0.0172 0.0039, 0.0759 -0.0043 0.0, 0.0759 -0.0043 0.0039, 0.0759 0.0346 0.0, 0.0759 0.0346 0.0039, 0.0313 0.0346 0.0, 0.0313 0.0346 0.0039, 0.0313 0.0476 0.0, 0.0313 0.0476 0.0039, 0.0918 0.0476 0.0, 0.0918 0.0476 0.0039, 0.0918 -0.0705 0.0, 0.0918 -0.0705 0.0039, 0.0284 -0.0705 0.0, 0.0284 -0.0705 0.0039, 0.0284 -0.0576 0.0, 0.0284 -0.0576 0.0039, 0.0759 -0.0576 0.0, 0.0759 -0.0576 0.0039, 0.0759 -0.0172 0.0, 0.0759 -0.0172 0.0039, 0.1148 0.0285 0.0, 0.1148 0.0285 0.0039, 0.1282 0.0342 0.0039, 0.1282 0.0342 0.0, 0.1425 0.0361 0.0039, 0.1425 0.0361 0.0, 0.1148 0.0443 0.0, 0.1148 0.0443 0.0039, 0.1426 0.049 0.0, 0.1426 0.049 0.0039, 0.1285 0.0481 0.0039, 0.1285 0.0481 0.0, 0.2027 -0.0137 0.0, 0.2027 -0.0137 0.0039, 0.2 -0.0014 0.0039, 0.2 -0.0014 0.0, 0.193 0.0201 0.0039, 0.193 0.0201 0.0, 0.187 0.0301 0.0039, 0.187 0.0301 0.0, 0.181 0.0361 0.0039, 0.181 0.0361 0.0, 0.1731 0.0408 0.0039, 0.1731 0.0408 0.0, 0.1614 0.045 0.0039, 0.1614 0.045 0.0, 0.1501 -0.0712 0.0, 0.1473 -0.072 0.0, 0.1473 -0.072 0.0039, 0.1567 -0.0695 0.0, 0.1567 -0.0695 0.0039, 0.179 -0.0614 0.0039, 0.179 -0.0614 0.0, 0.1875 -0.0556 0.0039, 0.1875 -0.0556 0.0, 0.1927 -0.0498 0.0039, 0.1927 -0.0498 0.0, 0.1966 -0.0422 0.0039, 0.1966 -0.0422 0.0, 0.1999 -0.0312 0.0039, 0.1999 -0.0312 0.0, 0.1306 -0.0703 0.0, 0.1148 -0.0644 0.0, 0.1306 -0.0703 0.0039, 0.1148 -0.0644 0.0039, 0.1401 -0.0712 0.0, 0.1148 -0.0514 0.0, 0.1148 -0.0514 0.0039, 0.1451 -0.059 0.0, 0.1451 -0.059 0.0039, 0.1294 -0.0573 0.0039, 0.1294 -0.0573 0.0, 0.1868 -0.0127 0.0, 0.1868 -0.0127 0.0039, 0.1841 -0.0271 0.0039, 0.1841 -0.0271 0.0, 0.1799 -0.0395 0.0039, 0.1799 -0.0395 0.0, 0.1759 -0.0458 0.0039, 0.1759 -0.0458 0.0, 0.1723 -0.0494 0.0039, 0.1723 -0.0494 0.0, 0.1667 -0.0528 0.0039, 0.1667 -0.0528 0.0, 0.1584 -0.0559 0.0039, 0.1584 -0.0559 0.0, 0.1483 0.0344 0.0039, 0.1483 0.0344 0.0, 0.1677 0.027 0.0039, 0.1677 0.027 0.0, 0.1749 0.022 0.0039, 0.1749 0.022 0.0, 0.179 0.0172 0.0039, 0.179 0.0172 0.0, 0.1822 0.0109 0.0039, 0.1822 0.0109 0.0, 0.1848 0.0018 0.0039, 0.1848 0.0018 0.0, 0.2733 -0.0705 0.0, 0.2733 -0.0705 0.0039, 0.2733 0.0476 0.0, 0.2733 0.0476 0.0039, 0.2128 -0.0705 0.0, 0.2128 -0.0705 0.0039, 0.2128 -0.0576 0.0, 0.2128 -0.0576 0.0039, 0.2574 -0.0576 0.0, 0.2574 -0.0576 0.0039, 0.2574 0.0476 0.0, 0.2574 0.0476 0.0039, 0.2574 0.0476 0.0039
            ]
        }
        coordIndex [
            0,1,2,-1,2,1,3,-1,4,5,0,-1,0,5,1,-1,6,7,4,-1,4,7,5,-1,8,9,6,-1,6,9,7,-1,10,11,8,-1,8,11,9,-1,12,13,10,-1,10,13,11,-1,14,15,12,-1,12,15,13,-1,14,2,15,-1,15,2,3,-1,16,17,13,-1,15,3,1,-1,18,11,19,-1,19,11,13,-1,19,13,20,-1,20,13,17,-1,13,15,16,-1,16,15,1,-1,16,1,21,-1,21,1,5,-1,18,22,11,-1,11,22,21,-1,11,21,9,-1,9,21,5,-1,9,5,7,-1,16,23,17,-1,17,23,24,-1,21,25,16,-1,16,25,23,-1,22,26,21,-1,21,26,25,-1,26,22,18,-1,26,18,27,-1,27,18,19,-1,27,19,28,-1,28,19,20,-1,28,20,29,-1,29,20,17,-1,29,17,24,-1,30,31,32,-1,32,31,33,-1,34,35,30,-1,30,35,31,-1,36,37,38,-1,36,38,39,-1,39,38,40,-1,39,40,41,-1,41,40,42,-1,41,42,43,-1,43,42,44,-1,43,44,45,-1,45,44,46,-1,45,46,47,-1,47,46,48,-1,47,48,49,-1,49,48,35,-1,49,35,34,-1,50,51,52,-1,50,52,53,-1,53,52,54,-1,53,54,55,-1,55,54,56,-1,55,56,57,-1,57,56,58,-1,57,58,59,-1,59,58,60,-1,59,60,61,-1,61,60,62,-1,61,62,63,-1,63,62,37,-1,63,37,36,-1,50,32,51,-1,51,32,33,-1,64,65,37,-1,37,65,38,-1,38,65,66,-1,38,66,40,-1,66,67,40,-1,40,67,68,-1,40,68,42,-1,42,68,69,-1,42,69,44,-1,44,69,70,-1,44,70,46,-1,46,70,71,-1,37,62,64,-1,64,62,60,-1,64,60,72,-1,72,60,58,-1,72,58,73,-1,73,58,56,-1,73,56,74,-1,74,56,54,-1,74,54,75,-1,75,54,76,-1,76,54,52,-1,76,52,77,-1,77,52,51,-1,77,51,78,-1,78,51,33,-1,78,33,79,-1,79,33,31,-1,79,31,80,-1,80,31,35,-1,80,35,71,-1,71,35,48,-1,71,48,46,-1,81,65,64,-1,81,64,82,-1,82,64,72,-1,82,72,83,-1,83,72,73,-1,83,73,84,-1,84,73,74,-1,84,74,85,-1,85,74,75,-1,85,75,86,-1,86,75,76,-1,86,76,87,-1,87,76,77,-1,87,77,88,-1,78,89,77,-1,77,89,88,-1,79,90,78,-1,78,90,89,-1,80,91,79,-1,79,91,90,-1,91,80,71,-1,91,71,92,-1,92,71,70,-1,92,70,93,-1,93,70,69,-1,93,69,94,-1,94,69,68,-1,94,68,95,-1,95,68,67,-1,95,67,96,-1,96,67,66,-1,96,66,97,-1,97,66,65,-1,97,65,81,-1,98,99,100,-1,100,99,101,-1,102,103,98,-1,98,103,99,-1,104,105,102,-1,102,105,103,-1,106,107,104,-1,104,107,105,-1,108,109,106,-1,106,109,107,-1,110,111,108,-1,108,111,109,-1,112,113,110,-1,110,113,111,-1,114,115,112,-1,112,115,113,-1,116,117,114,-1,114,117,115,-1,118,119,116,-1,116,119,117,-1,120,121,118,-1,118,121,119,-1,120,100,121,-1,121,100,101,-1,115,117,113,-1,113,117,119,-1,101,99,121,-1,121,99,103,-1,107,109,105,-1,105,109,111,-1,105,111,103,-1,103,111,113,-1,103,113,121,-1,121,113,119,-1,122,123,124,-1,122,124,125,-1,125,124,126,-1,125,126,127,-1,128,129,122,-1,122,129,123,-1,130,131,132,-1,130,132,133,-1,133,132,129,-1,133,129,128,-1,134,135,136,-1,134,136,137,-1,137,136,138,-1,137,138,139,-1,139,138,140,-1,139,140,141,-1,141,140,142,-1,141,142,143,-1,143,142,144,-1,143,144,145,-1,145,144,146,-1,145,146,147,-1,147,146,131,-1,147,131,130,-1,148,149,150,-1,148,150,151,-1,150,152,151,-1,151,152,153,-1,151,153,154,-1,154,153,155,-1,154,155,156,-1,156,155,157,-1,156,157,158,-1,158,157,159,-1,158,159,160,-1,160,159,161,-1,160,161,162,-1,162,161,135,-1,162,135,134,-1,163,164,165,-1,165,164,166,-1,163,165,167,-1,167,165,150,-1,167,150,149,-1,168,169,164,-1,164,169,166,-1,170,171,172,-1,170,172,173,-1,173,172,169,-1,173,169,168,-1,174,175,176,-1,174,176,177,-1,177,176,178,-1,177,178,179,-1,179,178,180,-1,179,180,181,-1,181,180,182,-1,181,182,183,-1,183,182,184,-1,183,184,185,-1,185,184,186,-1,185,186,187,-1,187,186,171,-1,187,171,170,-1,127,126,188,-1,127,188,189,-1,189,188,190,-1,189,190,191,-1,191,190,192,-1,191,192,193,-1,193,192,194,-1,193,194,195,-1,195,194,196,-1,195,196,197,-1,197,196,198,-1,197,198,199,-1,199,198,175,-1,199,175,174,-1,123,129,124,-1,124,129,132,-1,124,132,126,-1,126,132,131,-1,126,131,188,-1,188,131,146,-1,188,146,190,-1,176,159,178,-1,178,159,157,-1,178,157,180,-1,180,157,155,-1,180,155,182,-1,182,155,153,-1,146,144,190,-1,190,144,142,-1,190,142,192,-1,192,142,140,-1,192,140,194,-1,194,140,138,-1,194,138,196,-1,166,169,165,-1,165,169,172,-1,165,172,150,-1,150,172,171,-1,150,171,152,-1,152,171,186,-1,152,186,153,-1,153,186,184,-1,153,184,182,-1,196,138,198,-1,198,138,136,-1,198,136,175,-1,175,136,135,-1,175,135,176,-1,176,135,161,-1,176,161,159,-1,200,201,202,-1,202,201,203,-1,204,205,200,-1,200,205,201,-1,206,207,204,-1,204,207,205,-1,208,209,206,-1,206,209,207,-1,210,211,208,-1,208,211,209,-1,210,202,211,-1,211,202,203,-1,211,203,209,-1,209,203,201,-1,209,201,207,-1,207,201,205,-1,
        ]
    }
}
Shape{
    appearance Appearance {
        material  Material 	{
            diffuseColor 1.0 1.0 1.0
            specularColor 0.5019607843137255 0.5019607843137255 0.5019607843137255
            ambientIntensity 0.2
            transparency 0
            shininess 0.5
        }
    }
    geometry IndexedFaceSet {
        ccw TRUE
        solid FALSE
        coord DEF co Coordinate {
            point [
                -0.1309 -0.0244 0.0, -0.1704 -0.0244 0.0, -0.1485 0.0249 0.0, -0.1526 0.0249 0.0, -0.1497 0.029 0.0, -0.1516 0.0291 0.0, -0.1504 0.0332 0.0, -0.0279 0.0346 0.0, -0.0105 0.0346 0.0, -0.0717 -0.0245 0.0, -0.0691 -0.0336 0.0, -0.0505 0.03 0.0, -0.0417 0.0325 0.0, -0.0699 0.0057 0.0, -0.0739 -0.0103 0.0, -0.0105 -0.0576 0.0, -0.0272 -0.0576 0.0, -0.0438 -0.0536 0.0, -0.0559 -0.0487 0.0, -0.0621 -0.0442 0.0, -0.066 -0.0397 0.0, -0.0565 0.027 0.0, -0.0651 0.0174 0.0, -0.0608 0.0234 0.0, -0.0608 0.0234 0.0
            ]
        }
        coordIndex [
            0,1,2,-1,2,1,3,-1,2,3,4,-1,4,3,5,-1,4,5,6,-1,7,8,9,-1,9,8,10,-1,11,12,13,-1,7,9,12,-1,12,9,14,-1,12,14,13,-1,15,16,8,-1,8,16,17,-1,8,17,18,-1,18,19,8,-1,8,19,20,-1,8,20,10,-1,11,13,21,-1,21,13,22,-1,21,22,23,-1,
        ]
    }
}